date,activityType,activityConfidence,ambientLightLevel,calendarEntryId,calendarName,callType,callPhoneNumber,messageAddress,messageFolder,messageLength,cellIDHash,connectivity,displayState,notificationPackage,notificationAction,heartRate,statusDelay,statusReason,statusMoodE,statusMoodV,statusMoodC
1454535000000,TILTING,100,107.0,[9135],[Arrrrr],,,,,,9F995128F14DBEB6C333EA7B23BEDB8B6B7D6D2833D6ADFF5F72AEF15C8158C2,MOBILE,1,edu.teco.moamoa,REMOVED,,287000,TIME,1.5,1,4.5
1454536799000,TILTING,100,66.0,[9135],[Arrrrr],,,,,,9F995128F14DBEB6C333EA7B23BEDB8B6B7D6D2833D6ADFF5F72AEF15C8158C2,MOBILE,1,edu.teco.moamoa,REMOVED,,41000,TIME,2,2,4.5
1454540701000,UNKNOWN,62,0.0,,,,,,,,9F995128F14DBEB6C333EA7B23BEDB8B6B7D6D2833D6ADFF5F72AEF15C8158C2,MOBILE,0,edu.teco.moamoa,REMOVED,,25000,CALENDAR_EVENT_END,1.5,0.5,5
1454678100000,STILL,46,0.0,,,,,,,,9F995128F14DBEB6C333EA7B23BEDB8B6B7D6D2833D6ADFF5F72AEF15C8158C2,MOBILE,0,edu.teco.moamoa,REMOVED,,218000,TIME,5.5,3.5,5
1454681100000,STILL,100,0.0,,,,,,,,9F995128F14DBEB6C333EA7B23BEDB8B6B7D6D2833D6ADFF5F72AEF15C8158C2,WIFI,1,edu.teco.moamoa,REMOVED,,15000,TIME,4.5,2.5,4.5
1454684700000,UNKNOWN,41,0.0,"[1154, 1153]","[KitHub.de, KitHub.de]",,,,,,9F995128F14DBEB6C333EA7B23BEDB8B6B7D6D2833D6ADFF5F72AEF15C8158C2,WIFI,1,edu.teco.moamoa,REMOVED,,7000,CALENDAR_EVENT_START,4,2.5,4
1454686344000,STILL,85,0.0,"[1154, 1153]","[KitHub.de, KitHub.de]",,,,,,9F995128F14DBEB6C333EA7B23BEDB8B6B7D6D2833D6ADFF5F72AEF15C8158C2,WIFI,0,edu.teco.moamoa,REMOVED,,33000,CALL_END,4.5,3.5,5.5
1454687755000,TILTING,100,0.0,"[1154, 1153]","[KitHub.de, KitHub.de]",,,,,,9F995128F14DBEB6C333EA7B23BEDB8B6B7D6D2833D6ADFF5F72AEF15C8158C2,NONE,1,edu.teco.moamoa,REMOVED,,233000,CONNECTIVITY_LOST,4.5,2.5,5
1454688901000,ON_BICYCLE,77,8.0,,,,,,,,9F995128F14DBEB6C333EA7B23BEDB8B6B7D6D2833D6ADFF5F72AEF15C8158C2,MOBILE,0,edu.teco.moamoa,REMOVED,,115000,CALENDAR_EVENT_END,6,1,4.5
1454691600000,STILL,100,15.0,,,,,,,,5A1ACC56A50D7306EB4864FBD59B523F2B00D8072433180F3934696839D9E5C8,WIFI,0,edu.teco.moamoa,REMOVED,,22000,TIME,3,1.5,5
1454695499000,STILL,85,0.0,,,,,,,,FB72E17109076A6C923D628884399655930DE0D8876CA8F191E6255A7CF2F662,MOBILE,0,edu.teco.moamoa,REMOVED,,132000,TIME,5,2,6
1454700900000,STILL,100,0.0,,,,,,,,389F7FBC8E058D61EFA91D591E1DC5C5AD418FEC3FB2D4AA68EC49AE4E7B784E,MOBILE,0,edu.teco.moamoa,REMOVED,,105000,TIME,5.5,3.5,4.5
1454761281000,TILTING,100,91.0,,,,,,,,9F995128F14DBEB6C333EA7B23BEDB8B6B7D6D2833D6ADFF5F72AEF15C8158C2,NONE,1,edu.teco.moamoa,REMOVED,,18000,CONNECTIVITY_LOST,6,2,5.5
1454763600000,IN_VEHICLE,100,280.0,,,,,,,,0D8BA49F81BA1EC5FF5B112EF5E17EF1334078CD93FCA2C7885A80A4FC59D908,MOBILE,1,edu.teco.moamoa,REMOVED,,37000,TIME,4.5,2.5,6
1454767198000,UNKNOWN,52,0.0,,,,,,,,D8CFDBE9CEFCC55AB5E63383BED2C4B0312E2558090D81230855900DD8AEF88C,MOBILE,0,edu.teco.moamoa,REMOVED,,154000,TIME,5,2.5,4.5
1454770799000,STILL,37,995.0,,,,,,,,0F9AF8F23C6F81F0A6D65DC11BE369DC7FF2C7D605EE21C10EE9C9C5F8DAD797,MOBILE,1,,,,42000,TIME,4.5,3,5
1454774399000,STILL,100,318.0,,,,,,,,351C525D3F082F96E77BC867F13FDC89FA57671BF2C82C25966E5E38AD963EF7,MOBILE,0,edu.teco.moamoa,REMOVED,,45000,TIME,3.5,3.5,5
1454777999000,STILL,47,0.0,,,,,,,,71D58D02C2A6DC612069E8152FA5CE314218A8BEFD72D0CB88598F8B92F58600,MOBILE,0,edu.teco.moamoa,REMOVED,,239000,TIME,2,1,5.5
1454790002000,TILTING,100,114.0,,,,,,,,9F995128F14DBEB6C333EA7B23BEDB8B6B7D6D2833D6ADFF5F72AEF15C8158C2,MOBILE,1,edu.teco.moamoa,REMOVED,,77000,TIME,4.5,2.5,5
1454798101000,TILTING,100,120.0,,,,,,,,9F995128F14DBEB6C333EA7B23BEDB8B6B7D6D2833D6ADFF5F72AEF15C8158C2,MOBILE,0,edu.teco.moamoa,REMOVED,,173000,TIME,5,2.5,4.5
1454835106000,STILL,69,129.0,[1457],[Birthdays],,,,,,9F995128F14DBEB6C333EA7B23BEDB8B6B7D6D2833D6ADFF5F72AEF15C8158C2,WIFI,1,edu.teco.moamoa,REMOVED,,172000,CALENDAR_EVENT_START,0,0.5,5
1454837935000,,,212.0,[1457],[Birthdays],,,,,,9F995128F14DBEB6C333EA7B23BEDB8B6B7D6D2833D6ADFF5F72AEF15C8158C2,WIFI,1,,,,,INDEPENDENT,0,0.5,5.5
1454924706000,TILTING,100,469.0,,,,,,,,B642716FB9BBCAB063836F18CF0741AC1A351C7B64A61578937D2A0474A84159,MOBILE,1,,,,,INDEPENDENT,5,3,5.5
1454927400000,STILL,100,46.0,[10115],"[Google Calendar 8F3744D5B907BE869E8BEB92DBC0D9A26FBD6806CEF3B67C77680115828CB84F]",,,,,,9F995128F14DBEB6C333EA7B23BEDB8B6B7D6D2833D6ADFF5F72AEF15C8158C2,WIFI,1,edu.teco.moamoa,REMOVED,,45000,CALENDAR_EVENT_START,4.5,1.5,6
1454929199000,STILL,100,209.0,[10115],"[Google Calendar 8F3744D5B907BE869E8BEB92DBC0D9A26FBD6806CEF3B67C77680115828CB84F]",,,,,,9F995128F14DBEB6C333EA7B23BEDB8B6B7D6D2833D6ADFF5F72AEF15C8158C2,WIFI,1,edu.teco.moamoa,REMOVED,,276000,TIME,4.5,2.5,5
1454933103000,STILL,100,0.0,,,,,,,,9F995128F14DBEB6C333EA7B23BEDB8B6B7D6D2833D6ADFF5F72AEF15C8158C2,WIFI,0,edu.teco.moamoa,REMOVED,,47000,CALENDAR_EVENT_END,3.5,1.5,5
1454938800000,TILTING,100,0.0,,,,,,,,9F995128F14DBEB6C333EA7B23BEDB8B6B7D6D2833D6ADFF5F72AEF15C8158C2,WIFI,0,edu.teco.moamoa,REMOVED,,124000,TIME,4.5,1,5.5
1454939998000,IN_VEHICLE,43,989.0,,,,,,,,10D69781377CF86FE865A9199D7B91CA20D5FD574C93B57C942B9C0B62901240,MOBILE,1,edu.teco.moamoa,REMOVED,,44000,TIME,4,0.5,5
1455009050000,,,38.0,[1184],[KitHub.de],,,,,,9F995128F14DBEB6C333EA7B23BEDB8B6B7D6D2833D6ADFF5F72AEF15C8158C2,MOBILE,1,edu.teco.moamoa,REMOVED,,22000,CALENDAR_EVENT_START,0.5,0.5,5
1455012000000,STILL,100,0.0,[1184],[KitHub.de],,,,,,9F995128F14DBEB6C333EA7B23BEDB8B6B7D6D2833D6ADFF5F72AEF15C8158C2,WIFI,0,edu.teco.moamoa,REMOVED,,23000,TIME,3.5,1,5.5
1455014700000,STILL,62,0.0,[1207],[KitHub.de],,,,,,9F995128F14DBEB6C333EA7B23BEDB8B6B7D6D2833D6ADFF5F72AEF15C8158C2,WIFI,0,edu.teco.moamoa,REMOVED,,52000,CALENDAR_EVENT_START,3.5,0.5,5
1455019200000,STILL,100,221.0,[1207],[KitHub.de],,,,,,9F995128F14DBEB6C333EA7B23BEDB8B6B7D6D2833D6ADFF5F72AEF15C8158C2,WIFI,0,edu.teco.moamoa,REMOVED,,19000,TIME,3,1,5
1455028725000,UNKNOWN,29,0.0,,,,,,,,9F995128F14DBEB6C333EA7B23BEDB8B6B7D6D2833D6ADFF5F72AEF15C8158C2,WIFI,0,edu.teco.moamoa,REMOVED,,24000,CONNECTIVITY_LOST,2.5,0,4.5
1455110401000,STILL,100,46.0,,,,,,,,9F995128F14DBEB6C333EA7B23BEDB8B6B7D6D2833D6ADFF5F72AEF15C8158C2,,1,edu.teco.moamoa,REMOVED,,16000,TIME,4.5,1,5
1455117600000,TILTING,100,0.0,[1497],[KitHub.de],,,,,,9F995128F14DBEB6C333EA7B23BEDB8B6B7D6D2833D6ADFF5F72AEF15C8158C2,WIFI,0,edu.teco.moamoa,REMOVED,,45000,TIME,2,0.5,4.5
