date,activityType,activityConfidence,ambientLightLevel,calendarEntryId,calendarName,callType,callPhoneNumber,messageAddress,messageFolder,messageLength,cellIDHash,connectivity,displayState,notificationPackage,notificationAction,heartRate,statusDelay,statusReason,statusMoodE,statusMoodV,statusMoodC
1448020839000,STILL,100,616.0,,,,,,,,8870B85EC8CFAD97DF2B7115A36DC8E001656E3244AE1FFDD2CACEEF8B9D8CBC,WIFI,0,edu.teco.moamoa,REMOVED,,25000,TIME,2,3,3.5
1448022224000,STILL,71,85.0,,,,,,,,7FC3FAD42920AC8F7610BA74DA6DD9350398EB8970A11DAB54928DE3D90591C9,MOBILE,1,edu.teco.moamoa,REMOVED,,106000,CONNECTIVITY_LOST,2.5,3.5,2.5
1448024439000,STILL,100,0.0,,,,,,,,8870B85EC8CFAD97DF2B7115A36DC8E001656E3244AE1FFDD2CACEEF8B9D8CBC,WIFI,0,edu.teco.moamoa,REMOVED,,32000,TIME,4,3.5,3.5
1448028039000,STILL,95,0.0,,,,,,,,8870B85EC8CFAD97DF2B7115A36DC8E001656E3244AE1FFDD2CACEEF8B9D8CBC,WIFI,0,edu.teco.moamoa,REMOVED,,21000,TIME,4,5,4.5
1448031639000,STILL,100,0.0,,,,,,,,8870B85EC8CFAD97DF2B7115A36DC8E001656E3244AE1FFDD2CACEEF8B9D8CBC,WIFI,0,edu.teco.moamoa,REMOVED,,12000,TIME,5,4.5,4
1448037259000,TILTING,100,0.0,,,,,,,,8870B85EC8CFAD97DF2B7115A36DC8E001656E3244AE1FFDD2CACEEF8B9D8CBC,WIFI,0,,,,23000,TIME,3,4,3.5
1448042706000,ON_FOOT,92,2.0,,,,,,,,8870B85EC8CFAD97DF2B7115A36DC8E001656E3244AE1FFDD2CACEEF8B9D8CBC,WIFI,0,edu.teco.moamoa,REMOVED,,14000,TIME,3,4.5,4
1448050837000,TILTING,100,0.0,,,,,,,,C53F1E268F56DE86D50A8C53814BF49A85FEE42A26E09B497B537DABBDF93A68,MOBILE,0,edu.teco.moamoa,REMOVED,,29000,TIME,4,4.5,4
1448062993000,IN_VEHICLE,44,13.0,,,,,,,,56D6ED9ADF0B699859495B5C0D4DC8435DAC711986C04635E0063A4F1A8A091B,WIFI,1,,,,,INDEPENDENT,4.5,5,4.5
1448064015000,STILL,100,98.0,[1278],[https://dav.nerven.gift/dav/cal/calendars/admin/94c25b9b-a9c4-45c8-a1ab-326f06926e06/],,,,,,6AB717006570253F7FEFAC301423BF462FEAE6C008B9228CD52688C35BCC3EFB,WIFI,0,edu.teco.moamoa,REMOVED,,22000,CALENDAR_EVENT_START,4,4.5,4
1448069147000,TILTING,100,24.0,[1278],[https://dav.nerven.gift/dav/cal/calendars/admin/94c25b9b-a9c4-45c8-a1ab-326f06926e06/],,,,,,6AB717006570253F7FEFAC301423BF462FEAE6C008B9228CD52688C35BCC3EFB,WIFI,1,,,,,INDEPENDENT,4,5,3
1448108204000,STILL,100,44.0,[1278],[https://dav.nerven.gift/dav/cal/calendars/admin/94c25b9b-a9c4-45c8-a1ab-326f06926e06/],,,,,,68CB481C0C90848AD7616908367688FF04C1DC324544F7963F3C6446BE854A52,WIFI,1,edu.teco.moamoa,REMOVED,,25000,TIME,2.5,4.5,4.5
1448111882000,ON_FOOT,92,2.0,[1278],[https://dav.nerven.gift/dav/cal/calendars/admin/94c25b9b-a9c4-45c8-a1ab-326f06926e06/],,,,,,E25ABDCAE5AB1F3C52BCBD0B47D5A18E1BC86207EBE3DACF1BCE9BFBDC0C36C9,MOBILE,0,edu.teco.moamoa,REMOVED,,12000,TIME,4.5,1,0.5
1448112794000,ON_FOOT,35,2.0,[1278],[https://dav.nerven.gift/dav/cal/calendars/admin/94c25b9b-a9c4-45c8-a1ab-326f06926e06/],,,,,,6D011C5BA9AF9E4561B1F0379D0345042331CD5EC1F87E1F87FADCE490C80BDD,MOBILE,0,edu.teco.moamoa,REMOVED,,39000,CALL_END,3,4,3.5
1448115723000,IN_VEHICLE,77,0.0,[1278],[https://dav.nerven.gift/dav/cal/calendars/admin/94c25b9b-a9c4-45c8-a1ab-326f06926e06/],,,,,,E114D55F8413ED4D1A3AB126F7841272566A05D7AD00EA7C36A6D02C282FF834,MOBILE,0,edu.teco.moamoa,REMOVED,,14000,CALL_END,4,4,4
1448119839000,STILL,58,,,,,,,,,,,,,,,,INDEPENDENT,2.5,5,5
1448121815000,UNKNOWN,85,0.0,[1278],[https://dav.nerven.gift/dav/cal/calendars/admin/94c25b9b-a9c4-45c8-a1ab-326f06926e06/],,,,,,5C489CDD0CBF9765F0278A90C941BF0B7DD378B42A229AEB5E4B63C8EDA34334,WIFI,0,edu.teco.moamoa,REMOVED,,29000,TIME,4,5,4
1448128073000,UNKNOWN,50,2.0,[1278],[https://dav.nerven.gift/dav/cal/calendars/admin/94c25b9b-a9c4-45c8-a1ab-326f06926e06/],,,,,,5C489CDD0CBF9765F0278A90C941BF0B7DD378B42A229AEB5E4B63C8EDA34334,WIFI,1,edu.teco.moamoa,REMOVED,,29000,CALL_END,4.5,4.5,4.5
1448129091000,TILTING,100,2.0,[1278],[https://dav.nerven.gift/dav/cal/calendars/admin/94c25b9b-a9c4-45c8-a1ab-326f06926e06/],,,,,,5C489CDD0CBF9765F0278A90C941BF0B7DD378B42A229AEB5E4B63C8EDA34334,WIFI,0,edu.teco.moamoa,REMOVED,,168000,TIME,4,5,4.5
1448133822000,STILL,69,0.0,[1278],[https://dav.nerven.gift/dav/cal/calendars/admin/94c25b9b-a9c4-45c8-a1ab-326f06926e06/],,,,,,D53CB7D370BE15974AB40092D9E756EBF11C971D8308262AAAB694AAC5F52B08,MOBILE,0,edu.teco.moamoa,REMOVED,,10000,TIME,3,4,4.5
1448139915000,STILL,100,0.0,[1278],[https://dav.nerven.gift/dav/cal/calendars/admin/94c25b9b-a9c4-45c8-a1ab-326f06926e06/],,,,,,F3A57348A35D6DED08B6B6F86A0EF385E4360368E689228AF726911C1F88EA2B,MOBILE,0,edu.teco.moamoa,REMOVED,,34000,TIME,2,4,4
1448268517000,STILL,67,57.0,,,,,,,,27DF98C01F11EC760E1231E7C5747FE577259315482BD4B92895148E28DABA3F,WIFI,1,edu.teco.moamoa,REMOVED,,19000,TIME,2,2.5,2.5
1448272059000,STILL,85,195.0,,,,,,,,27DF98C01F11EC760E1231E7C5747FE577259315482BD4B92895148E28DABA3F,WIFI,0,edu.teco.moamoa,REMOVED,,13000,TIME,1,2.5,3.5
1448280584000,TILTING,100,6.0,,,,,,,,B8BFC765689845FBC0DEAB5EF30D0D0823E106694D78E58D014EFEE75C404827,WIFI,1,,,,,INDEPENDENT,3,4,3.5
1448283692000,STILL,80,0.0,,,,,,,,B6A8891D2C7996FE0DC645F30395EEB1E89E077C1A5FD9066431ABD602482300,WIFI,0,edu.teco.moamoa,REMOVED,,12000,TIME,2,2.5,2
1448287371000,STILL,100,0.0,,,,,,,,B6A8891D2C7996FE0DC645F30395EEB1E89E077C1A5FD9066431ABD602482300,WIFI,0,edu.teco.moamoa,REMOVED,,27000,TIME,1.5,3,2
1448291010000,UNKNOWN,43,0.0,,,,,,,,B6A8891D2C7996FE0DC645F30395EEB1E89E077C1A5FD9066431ABD602482300,WIFI,0,edu.teco.moamoa,REMOVED,,29000,TIME,3.5,1.5,3
1448293642000,STILL,77,0.0,,,,,,,,C53F1E268F56DE86D50A8C53814BF49A85FEE42A26E09B497B537DABBDF93A68,WIFI,1,,,52,,INDEPENDENT,1.5,1.5,1.5
1448294655000,STILL,42,0.0,,,,,,,,C53F1E268F56DE86D50A8C53814BF49A85FEE42A26E09B497B537DABBDF93A68,WIFI,1,edu.teco.moamoa,REMOVED,,20000,TIME,1,1.5,2
1448300122000,ON_FOOT,87,2.0,,,,,,,,64638A967BA95AAC04424587DB73CFB7ABF9ED381F22D2F2A5506DFB0DB6C63B,MOBILE,1,edu.teco.moamoa,REMOVED,,18000,TIME,2.5,3,2
1448302598000,,,,,,,,,,,,,,,,,46000,MESSAGE_NEW,1.5,2,2
1448303906000,UNKNOWN,50,4.0,,,,,,,,,WIFI,1,edu.teco.moamoa,REMOVED,,98000,MESSAGE_NEW,2,3.5,2
1448305200000,UNKNOWN,64,0.0,,,,,,,,,MOBILE,0,,,,42000,TIME,4,4.5,3
1448309656000,STILL,100,0.0,,,,,,,,99351362AF6A5DC761AA8D6ECEA8C8EBEED0AAAFB8C175A2BA1BA02070F713FC,MOBILE,0,edu.teco.moamoa,REMOVED,,46000,TIME,2.5,4,4
1448314634000,STILL,60,0.0,,,,,,,,99351362AF6A5DC761AA8D6ECEA8C8EBEED0AAAFB8C175A2BA1BA02070F713FC,MOBILE,0,edu.teco.moamoa,REMOVED,,34000,TIME,2.5,4,4
1448350073000,UNKNOWN,41,6.0,,,,,,,,90B1C0E2EB98F167142483CA078E41A6B3306FE40B062D87C77592A99DF404F0,WIFI,1,,,,,INDEPENDENT,2,2.5,3
1448352172000,ON_FOOT,100,0.0,,,,,,,,,MOBILE,,,,,15000,TIME,2,3.5,3
1448353087000,TILTING,100,0.0,[1294],[https://dav.nerven.gift/dav/cal/calendars/admin/94c25b9b-a9c4-45c8-a1ab-326f06926e06/],,,,,,8A19DA672FC5F9337FE115285B35A241CC338BC185B08CCF71EA7A9082B7A343,MOBILE,0,edu.teco.moamoa,REMOVED,,18000,CALENDAR_EVENT_START,2.5,4,4
1448356948000,STILL,55,0.0,,,,,,,,C53F1E268F56DE86D50A8C53814BF49A85FEE42A26E09B497B537DABBDF93A68,MOBILE,0,edu.teco.moamoa,REMOVED,68,32000,TIME,3,4,4
1448360348000,TILTING,100,288.0,,,,,,,,D0348E5FC3162CAB9CAEEE8FBD88312B086090D61E0A2CAE57D8C74C40AFE6FE,MOBILE,1,,,,,INDEPENDENT,2.5,3.5,2
1448383866000,STILL,100,356.0,,,,,,,,7FC3FAD42920AC8F7610BA74DA6DD9350398EB8970A11DAB54928DE3D90591C9,WIFI,0,edu.teco.moamoa,REMOVED,,227000,TIME,3.5,3.5,4.5
1448391658000,UNKNOWN,39,193.0,,,,,,,,7FC3FAD42920AC8F7610BA74DA6DD9350398EB8970A11DAB54928DE3D90591C9,MOBILE,1,,,,,CONNECTIVITY_LOST,2,2,3.5
1448395323000,UNKNOWN,62,127.0,,,,,,,,EABE35D05B6947CDBE5ABBBCFFBAE64EB90DD179EE6DE780342B0C3D9BA0C0E2,NONE,1,edu.teco.moamoa,REMOVED,,25000,CONNECTIVITY_LOST,1.5,2.5,2.5
1448400628000,STILL,92,0.0,,,,,,,,8C0971676C9DAEEE4E88839E5D7AE441A7F5F94352E97BD1B9CCEEF50E9177D5,WIFI,0,edu.teco.moamoa,REMOVED,,15000,TIME,2,4,3
1448439508000,TILTING,100,1100.0,,,,,,,,,MOBILE,1,,,,,INDEPENDENT,1.5,2.5,1.5
1448441275000,STILL,100,19.0,,,,,,,,4C51218E66A3591A2539FFC52D6011D0E6B0ED9C82DFE2ABF3095E7C24999654,NONE,1,com.ubergeek42.WeechatAndroid,POSTED,,20000,CONNECTIVITY_LOST,1.5,3,3.5
1448446912000,STILL,100,0.0,,,,,,,,7FC3FAD42920AC8F7610BA74DA6DD9350398EB8970A11DAB54928DE3D90591C9,WIFI,0,edu.teco.moamoa,REMOVED,,12000,TIME,1.5,2,2
1448450874000,STILL,54,0.0,,,,,,,,99351362AF6A5DC761AA8D6ECEA8C8EBEED0AAAFB8C175A2BA1BA02070F713FC,WIFI,0,edu.teco.moamoa,REMOVED,,20000,TIME,2,2.5,2
1448453843000,TILTING,100,0.0,,,,,,,,B6A8891D2C7996FE0DC645F30395EEB1E89E077C1A5FD9066431ABD602482300,MOBILE,0,edu.teco.moamoa,REMOVED,,29000,CONNECTIVITY_LOST,1.5,3,2.5
1448455366000,TILTING,100,116.0,,,,,,,,FDF858EE55234EA23DD69607E500F0123DF54669A838FD91872E7133947DBACF,NONE,1,,,,52000,CONNECTIVITY_LOST,1.5,2,2
1448459231000,TILTING,100,0.0,,,,,,,,FDF858EE55234EA23DD69607E500F0123DF54669A838FD91872E7133947DBACF,WIFI,0,,,,16000,TIME,2.5,4,3
1448464711000,TILTING,100,0.0,,,,,,,,C53F1E268F56DE86D50A8C53814BF49A85FEE42A26E09B497B537DABBDF93A68,WIFI,0,,,,320000,TIME,2.5,2.5,2
1448468771000,UNKNOWN,46,0.0,,,,,,,,C53F1E268F56DE86D50A8C53814BF49A85FEE42A26E09B497B537DABBDF93A68,WIFI,0,edu.teco.moamoa,REMOVED,,10000,TIME,2.5,3,3.5
1448478595000,TILTING,100,0.0,,,,,,,,ECC44A2D8B72816AD8E84AD047C40A7CBF10619C4AE13B8EC599D1BAFB30638D,MOBILE,1,,,,,INDEPENDENT,2.5,4,4
1448481600000,STILL,100,0.0,,,,,,,,ECC44A2D8B72816AD8E84AD047C40A7CBF10619C4AE13B8EC599D1BAFB30638D,MOBILE,0,edu.teco.moamoa,REMOVED,,40000,TIME,3,4.5,3
1448485231000,IN_VEHICLE,31,0.0,,,,,,,,CE46FD6F010BAAA455F9927920B967745771E14C885ACC7207248778B8FCD459,MOBILE,0,,,,18000,TIME,2,2.5,3.5
1448525661000,UNKNOWN,51,0.0,,,,,,,,21BA9C15219503225B9A29D7BCF02E5DB7F879B53359B7811D5C4C264D66B72E,WIFI,0,edu.teco.moamoa,REMOVED,,34000,TIME,2.5,4,2
1448529856000,STILL,100,13.0,,,,,,,,680CB173B3BBE21BA64AA3DE9E94C9E0DA8CCF3C6F6C5AF8F3A1C03151BDAA79,NONE,1,edu.teco.moamoa,REMOVED,,31000,CONNECTIVITY_LOST,2.5,3.5,4
1448532000000,STILL,100,35.0,,,,,,,,680CB173B3BBE21BA64AA3DE9E94C9E0DA8CCF3C6F6C5AF8F3A1C03151BDAA79,WIFI,0,edu.teco.moamoa,REMOVED,,16000,TIME,2,3.5,4
1448534671000,STILL,66,13.0,,,,,,,,8870B85EC8CFAD97DF2B7115A36DC8E001656E3244AE1FFDD2CACEEF8B9D8CBC,NONE,1,edu.teco.moamoa,REMOVED,,28000,CONNECTIVITY_LOST,2,2.5,3.5
1448535600000,STILL,100,19.0,,,,,,,,99351362AF6A5DC761AA8D6ECEA8C8EBEED0AAAFB8C175A2BA1BA02070F713FC,MOBILE,1,edu.teco.moamoa,REMOVED,,22000,TIME,2,2,3.5
1448539070000,STILL,100,22.0,,,,,,,,A500253EBDDA05B6250753AC2546DDA39057C9F37411A817B5ABCB27804CF340,NONE,1,edu.teco.moamoa,REMOVED,,117000,CONNECTIVITY_LOST,2,2.5,2
1448542800000,STILL,58,0.0,,,,,,,,C53F1E268F56DE86D50A8C53814BF49A85FEE42A26E09B497B537DABBDF93A68,WIFI,0,edu.teco.moamoa,REMOVED,,15000,TIME,2.5,3,3.5
1448546400000,STILL,100,286.0,,,,,,,,7FC3FAD42920AC8F7610BA74DA6DD9350398EB8970A11DAB54928DE3D90591C9,WIFI,0,edu.teco.moamoa,REMOVED,,24000,TIME,2.5,3.5,3
1448549042000,TILTING,100,6.0,,,,,,,,CBF4EF3580F888604DC5E655B5DE5EB79D9915693A6C9394FBEE54EE866FBC1A,MOBILE,1,edu.teco.moamoa,REMOVED,,40000,CONNECTIVITY_LOST,2.5,3.5,2.5
1448550000000,STILL,100,0.0,,,,,,,,955CB9003F8B6225ED1B31C3D4452ED5128F00719596B7366B3C760A86207571,MOBILE,,edu.teco.moamoa,REMOVED,,13000,TIME,2.5,3.5,4.5
1448553600000,STILL,100,0.0,,,,,,,,CBF4EF3580F888604DC5E655B5DE5EB79D9915693A6C9394FBEE54EE866FBC1A,MOBILE,0,edu.teco.moamoa,REMOVED,,35000,TIME,3.5,4,3
1448557199000,TILTING,100,0.0,,,,,,,,6AB717006570253F7FEFAC301423BF462FEAE6C008B9228CD52688C35BCC3EFB,WIFI,0,edu.teco.moamoa,REMOVED,,38000,TIME,4,4,3
1448559503000,TILTING,100,2.0,,,,,,,,C53F1E268F56DE86D50A8C53814BF49A85FEE42A26E09B497B537DABBDF93A68,NONE,1,,,,28000,CONNECTIVITY_LOST,3.5,4,3.5
1448560799000,STILL,85,0.0,,,,,,,,C53F1E268F56DE86D50A8C53814BF49A85FEE42A26E09B497B537DABBDF93A68,WIFI,0,edu.teco.moamoa,REMOVED,,53000,TIME,3.5,5,3
1448564399000,UNKNOWN,38,0.0,[1295],[https://dav.nerven.gift/dav/cal/calendars/admin/94c25b9b-a9c4-45c8-a1ab-326f06926e06/],,,,,,C53F1E268F56DE86D50A8C53814BF49A85FEE42A26E09B497B537DABBDF93A68,WIFI,0,edu.teco.moamoa,REMOVED,,243000,TIME,4,4,2
1448568599000,UNKNOWN,56,0.0,[1295],[https://dav.nerven.gift/dav/cal/calendars/admin/94c25b9b-a9c4-45c8-a1ab-326f06926e06/],,,,,,99351362AF6A5DC761AA8D6ECEA8C8EBEED0AAAFB8C175A2BA1BA02070F713FC,WIFI,0,edu.teco.moamoa,REMOVED,,65000,TIME,4,5,4
1448571599000,STILL,69,0.0,[1295],[https://dav.nerven.gift/dav/cal/calendars/admin/94c25b9b-a9c4-45c8-a1ab-326f06926e06/],,,,,,99351362AF6A5DC761AA8D6ECEA8C8EBEED0AAAFB8C175A2BA1BA02070F713FC,WIFI,0,edu.teco.moamoa,REMOVED,,19000,TIME,4.5,5,4
1448575199000,UNKNOWN,46,0.0,[1295],[https://dav.nerven.gift/dav/cal/calendars/admin/94c25b9b-a9c4-45c8-a1ab-326f06926e06/],,,,,,99351362AF6A5DC761AA8D6ECEA8C8EBEED0AAAFB8C175A2BA1BA02070F713FC,WIFI,0,edu.teco.moamoa,REMOVED,,13000,TIME,4.5,5,3
1448578801000,UNKNOWN,64,0.0,,,,,,,,8870B85EC8CFAD97DF2B7115A36DC8E001656E3244AE1FFDD2CACEEF8B9D8CBC,WIFI,0,edu.teco.moamoa,REMOVED,,14000,CALENDAR_EVENT_END,4,5,4.5
1448581481000,TILTING,100,0.0,,,,,,,,680CB173B3BBE21BA64AA3DE9E94C9E0DA8CCF3C6F6C5AF8F3A1C03151BDAA79,MOBILE,1,,,,,INDEPENDENT,3,4,2.5
