date,activityType,activityConfidence,ambientLightLevel,calendarEntryId,calendarName,callType,callPhoneNumber,messageAddress,messageFolder,messageLength,cellIDHash,connectivity,displayState,notificationPackage,notificationAction,heartRate,statusDelay,statusReason,statusMoodE,statusMoodV,statusMoodC
1448020839000,STILL,100,616.0,,,,,,,,8870B85EC8CFAD97DF2B7115A36DC8E001656E3244AE1FFDD2CACEEF8B9D8CBC,WIFI,0,edu.teco.moamoa,REMOVED,,25000,TIME,2,3,3.5
1448022224000,STILL,71,85.0,,,,,,,,7FC3FAD42920AC8F7610BA74DA6DD9350398EB8970A11DAB54928DE3D90591C9,MOBILE,1,edu.teco.moamoa,REMOVED,,106000,CONNECTIVITY_LOST,2.5,3.5,2.5
1448024439000,STILL,100,0.0,,,,,,,,8870B85EC8CFAD97DF2B7115A36DC8E001656E3244AE1FFDD2CACEEF8B9D8CBC,WIFI,0,edu.teco.moamoa,REMOVED,,32000,TIME,4,3.5,3.5
1448028039000,STILL,95,0.0,,,,,,,,8870B85EC8CFAD97DF2B7115A36DC8E001656E3244AE1FFDD2CACEEF8B9D8CBC,WIFI,0,edu.teco.moamoa,REMOVED,,21000,TIME,4,5,4.5
1448031639000,STILL,100,0.0,,,,,,,,8870B85EC8CFAD97DF2B7115A36DC8E001656E3244AE1FFDD2CACEEF8B9D8CBC,WIFI,0,edu.teco.moamoa,REMOVED,,12000,TIME,5,4.5,4
1448037259000,TILTING,100,0.0,,,,,,,,8870B85EC8CFAD97DF2B7115A36DC8E001656E3244AE1FFDD2CACEEF8B9D8CBC,WIFI,0,,,,23000,TIME,3,4,3.5
1448042706000,ON_FOOT,92,2.0,,,,,,,,8870B85EC8CFAD97DF2B7115A36DC8E001656E3244AE1FFDD2CACEEF8B9D8CBC,WIFI,0,edu.teco.moamoa,REMOVED,,14000,TIME,3,4.5,4
1448050837000,TILTING,100,0.0,,,,,,,,C53F1E268F56DE86D50A8C53814BF49A85FEE42A26E09B497B537DABBDF93A68,MOBILE,0,edu.teco.moamoa,REMOVED,,29000,TIME,4,4.5,4
1448062993000,IN_VEHICLE,44,13.0,,,,,,,,56D6ED9ADF0B699859495B5C0D4DC8435DAC711986C04635E0063A4F1A8A091B,WIFI,1,,,,,INDEPENDENT,4.5,5,4.5
1448064015000,STILL,100,98.0,[1278],[https://dav.nerven.gift/dav/cal/calendars/admin/94c25b9b-a9c4-45c8-a1ab-326f06926e06/],,,,,,6AB717006570253F7FEFAC301423BF462FEAE6C008B9228CD52688C35BCC3EFB,WIFI,0,edu.teco.moamoa,REMOVED,,22000,CALENDAR_EVENT_START,4,4.5,4
1448069147000,TILTING,100,24.0,[1278],[https://dav.nerven.gift/dav/cal/calendars/admin/94c25b9b-a9c4-45c8-a1ab-326f06926e06/],,,,,,6AB717006570253F7FEFAC301423BF462FEAE6C008B9228CD52688C35BCC3EFB,WIFI,1,,,,,INDEPENDENT,4,5,3
1448108204000,STILL,100,44.0,[1278],[https://dav.nerven.gift/dav/cal/calendars/admin/94c25b9b-a9c4-45c8-a1ab-326f06926e06/],,,,,,68CB481C0C90848AD7616908367688FF04C1DC324544F7963F3C6446BE854A52,WIFI,1,edu.teco.moamoa,REMOVED,,25000,TIME,2.5,4.5,4.5
1448111882000,ON_FOOT,92,2.0,[1278],[https://dav.nerven.gift/dav/cal/calendars/admin/94c25b9b-a9c4-45c8-a1ab-326f06926e06/],,,,,,E25ABDCAE5AB1F3C52BCBD0B47D5A18E1BC86207EBE3DACF1BCE9BFBDC0C36C9,MOBILE,0,edu.teco.moamoa,REMOVED,,12000,TIME,4.5,1,0.5
1448112794000,ON_FOOT,35,2.0,[1278],[https://dav.nerven.gift/dav/cal/calendars/admin/94c25b9b-a9c4-45c8-a1ab-326f06926e06/],,,,,,6D011C5BA9AF9E4561B1F0379D0345042331CD5EC1F87E1F87FADCE490C80BDD,MOBILE,0,edu.teco.moamoa,REMOVED,,39000,CALL_END,3,4,3.5
1448115723000,IN_VEHICLE,77,0.0,[1278],[https://dav.nerven.gift/dav/cal/calendars/admin/94c25b9b-a9c4-45c8-a1ab-326f06926e06/],,,,,,E114D55F8413ED4D1A3AB126F7841272566A05D7AD00EA7C36A6D02C282FF834,MOBILE,0,edu.teco.moamoa,REMOVED,,14000,CALL_END,4,4,4
1448119839000,STILL,58,,,,,,,,,,,,,,,,INDEPENDENT,2.5,5,5
1448121815000,UNKNOWN,85,0.0,[1278],[https://dav.nerven.gift/dav/cal/calendars/admin/94c25b9b-a9c4-45c8-a1ab-326f06926e06/],,,,,,5C489CDD0CBF9765F0278A90C941BF0B7DD378B42A229AEB5E4B63C8EDA34334,WIFI,0,edu.teco.moamoa,REMOVED,,29000,TIME,4,5,4
1448128073000,UNKNOWN,50,2.0,[1278],[https://dav.nerven.gift/dav/cal/calendars/admin/94c25b9b-a9c4-45c8-a1ab-326f06926e06/],,,,,,5C489CDD0CBF9765F0278A90C941BF0B7DD378B42A229AEB5E4B63C8EDA34334,WIFI,1,edu.teco.moamoa,REMOVED,,29000,CALL_END,4.5,4.5,4.5
1448129091000,TILTING,100,2.0,[1278],[https://dav.nerven.gift/dav/cal/calendars/admin/94c25b9b-a9c4-45c8-a1ab-326f06926e06/],,,,,,5C489CDD0CBF9765F0278A90C941BF0B7DD378B42A229AEB5E4B63C8EDA34334,WIFI,0,edu.teco.moamoa,REMOVED,,168000,TIME,4,5,4.5
1448133822000,STILL,69,0.0,[1278],[https://dav.nerven.gift/dav/cal/calendars/admin/94c25b9b-a9c4-45c8-a1ab-326f06926e06/],,,,,,D53CB7D370BE15974AB40092D9E756EBF11C971D8308262AAAB694AAC5F52B08,MOBILE,0,edu.teco.moamoa,REMOVED,,10000,TIME,3,4,4.5
1448139915000,STILL,100,0.0,[1278],[https://dav.nerven.gift/dav/cal/calendars/admin/94c25b9b-a9c4-45c8-a1ab-326f06926e06/],,,,,,F3A57348A35D6DED08B6B6F86A0EF385E4360368E689228AF726911C1F88EA2B,MOBILE,0,edu.teco.moamoa,REMOVED,,34000,TIME,2,4,4
1448268517000,STILL,67,57.0,,,,,,,,27DF98C01F11EC760E1231E7C5747FE577259315482BD4B92895148E28DABA3F,WIFI,1,edu.teco.moamoa,REMOVED,,19000,TIME,2,2.5,2.5
1448272059000,STILL,85,195.0,,,,,,,,27DF98C01F11EC760E1231E7C5747FE577259315482BD4B92895148E28DABA3F,WIFI,0,edu.teco.moamoa,REMOVED,,13000,TIME,1,2.5,3.5
1448280584000,TILTING,100,6.0,,,,,,,,B8BFC765689845FBC0DEAB5EF30D0D0823E106694D78E58D014EFEE75C404827,WIFI,1,,,,,INDEPENDENT,3,4,3.5
1448283692000,STILL,80,0.0,,,,,,,,B6A8891D2C7996FE0DC645F30395EEB1E89E077C1A5FD9066431ABD602482300,WIFI,0,edu.teco.moamoa,REMOVED,,12000,TIME,2,2.5,2
1448287371000,STILL,100,0.0,,,,,,,,B6A8891D2C7996FE0DC645F30395EEB1E89E077C1A5FD9066431ABD602482300,WIFI,0,edu.teco.moamoa,REMOVED,,27000,TIME,1.5,3,2
1448291010000,UNKNOWN,43,0.0,,,,,,,,B6A8891D2C7996FE0DC645F30395EEB1E89E077C1A5FD9066431ABD602482300,WIFI,0,edu.teco.moamoa,REMOVED,,29000,TIME,3.5,1.5,3
1448293642000,STILL,77,0.0,,,,,,,,C53F1E268F56DE86D50A8C53814BF49A85FEE42A26E09B497B537DABBDF93A68,WIFI,1,,,52,,INDEPENDENT,1.5,1.5,1.5
1448294655000,STILL,42,0.0,,,,,,,,C53F1E268F56DE86D50A8C53814BF49A85FEE42A26E09B497B537DABBDF93A68,WIFI,1,edu.teco.moamoa,REMOVED,,20000,TIME,1,1.5,2
1448300122000,ON_FOOT,87,2.0,,,,,,,,64638A967BA95AAC04424587DB73CFB7ABF9ED381F22D2F2A5506DFB0DB6C63B,MOBILE,1,edu.teco.moamoa,REMOVED,,18000,TIME,2.5,3,2
1448302598000,,,,,,,,,,,,,,,,,46000,MESSAGE_NEW,1.5,2,2
1448303906000,UNKNOWN,50,4.0,,,,,,,,,WIFI,1,edu.teco.moamoa,REMOVED,,98000,MESSAGE_NEW,2,3.5,2
1448305200000,UNKNOWN,64,0.0,,,,,,,,,MOBILE,0,,,,42000,TIME,4,4.5,3
1448309656000,STILL,100,0.0,,,,,,,,99351362AF6A5DC761AA8D6ECEA8C8EBEED0AAAFB8C175A2BA1BA02070F713FC,MOBILE,0,edu.teco.moamoa,REMOVED,,46000,TIME,2.5,4,4
1448314634000,STILL,60,0.0,,,,,,,,99351362AF6A5DC761AA8D6ECEA8C8EBEED0AAAFB8C175A2BA1BA02070F713FC,MOBILE,0,edu.teco.moamoa,REMOVED,,34000,TIME,2.5,4,4
1448350073000,UNKNOWN,41,6.0,,,,,,,,90B1C0E2EB98F167142483CA078E41A6B3306FE40B062D87C77592A99DF404F0,WIFI,1,,,,,INDEPENDENT,2,2.5,3
1448352172000,ON_FOOT,100,0.0,,,,,,,,,MOBILE,,,,,15000,TIME,2,3.5,3
1448353087000,TILTING,100,0.0,[1294],[https://dav.nerven.gift/dav/cal/calendars/admin/94c25b9b-a9c4-45c8-a1ab-326f06926e06/],,,,,,8A19DA672FC5F9337FE115285B35A241CC338BC185B08CCF71EA7A9082B7A343,MOBILE,0,edu.teco.moamoa,REMOVED,,18000,CALENDAR_EVENT_START,2.5,4,4
1448356948000,STILL,55,0.0,,,,,,,,C53F1E268F56DE86D50A8C53814BF49A85FEE42A26E09B497B537DABBDF93A68,MOBILE,0,edu.teco.moamoa,REMOVED,68,32000,TIME,3,4,4
1448360348000,TILTING,100,288.0,,,,,,,,D0348E5FC3162CAB9CAEEE8FBD88312B086090D61E0A2CAE57D8C74C40AFE6FE,MOBILE,1,,,,,INDEPENDENT,2.5,3.5,2
1448383866000,STILL,100,356.0,,,,,,,,7FC3FAD42920AC8F7610BA74DA6DD9350398EB8970A11DAB54928DE3D90591C9,WIFI,0,edu.teco.moamoa,REMOVED,,227000,TIME,3.5,3.5,4.5
1448391658000,UNKNOWN,39,193.0,,,,,,,,7FC3FAD42920AC8F7610BA74DA6DD9350398EB8970A11DAB54928DE3D90591C9,MOBILE,1,,,,,CONNECTIVITY_LOST,2,2,3.5
1448395323000,UNKNOWN,62,127.0,,,,,,,,EABE35D05B6947CDBE5ABBBCFFBAE64EB90DD179EE6DE780342B0C3D9BA0C0E2,NONE,1,edu.teco.moamoa,REMOVED,,25000,CONNECTIVITY_LOST,1.5,2.5,2.5
1448400628000,STILL,92,0.0,,,,,,,,8C0971676C9DAEEE4E88839E5D7AE441A7F5F94352E97BD1B9CCEEF50E9177D5,WIFI,0,edu.teco.moamoa,REMOVED,,15000,TIME,2,4,3
1448439508000,TILTING,100,1100.0,,,,,,,,,MOBILE,1,,,,,INDEPENDENT,1.5,2.5,1.5
1448441275000,STILL,100,19.0,,,,,,,,4C51218E66A3591A2539FFC52D6011D0E6B0ED9C82DFE2ABF3095E7C24999654,NONE,1,com.ubergeek42.WeechatAndroid,POSTED,,20000,CONNECTIVITY_LOST,1.5,3,3.5
1448446912000,STILL,100,0.0,,,,,,,,7FC3FAD42920AC8F7610BA74DA6DD9350398EB8970A11DAB54928DE3D90591C9,WIFI,0,edu.teco.moamoa,REMOVED,,12000,TIME,1.5,2,2
1448450874000,STILL,54,0.0,,,,,,,,99351362AF6A5DC761AA8D6ECEA8C8EBEED0AAAFB8C175A2BA1BA02070F713FC,WIFI,0,edu.teco.moamoa,REMOVED,,20000,TIME,2,2.5,2
1448453843000,TILTING,100,0.0,,,,,,,,B6A8891D2C7996FE0DC645F30395EEB1E89E077C1A5FD9066431ABD602482300,MOBILE,0,edu.teco.moamoa,REMOVED,,29000,CONNECTIVITY_LOST,1.5,3,2.5
1448455366000,TILTING,100,116.0,,,,,,,,FDF858EE55234EA23DD69607E500F0123DF54669A838FD91872E7133947DBACF,NONE,1,,,,52000,CONNECTIVITY_LOST,1.5,2,2
1448459231000,TILTING,100,0.0,,,,,,,,FDF858EE55234EA23DD69607E500F0123DF54669A838FD91872E7133947DBACF,WIFI,0,,,,16000,TIME,2.5,4,3
1448464711000,TILTING,100,0.0,,,,,,,,C53F1E268F56DE86D50A8C53814BF49A85FEE42A26E09B497B537DABBDF93A68,WIFI,0,,,,320000,TIME,2.5,2.5,2
1448468771000,UNKNOWN,46,0.0,,,,,,,,C53F1E268F56DE86D50A8C53814BF49A85FEE42A26E09B497B537DABBDF93A68,WIFI,0,edu.teco.moamoa,REMOVED,,10000,TIME,2.5,3,3.5
1448478595000,TILTING,100,0.0,,,,,,,,ECC44A2D8B72816AD8E84AD047C40A7CBF10619C4AE13B8EC599D1BAFB30638D,MOBILE,1,,,,,INDEPENDENT,2.5,4,4
1448481600000,STILL,100,0.0,,,,,,,,ECC44A2D8B72816AD8E84AD047C40A7CBF10619C4AE13B8EC599D1BAFB30638D,MOBILE,0,edu.teco.moamoa,REMOVED,,40000,TIME,3,4.5,3
1448485231000,IN_VEHICLE,31,0.0,,,,,,,,CE46FD6F010BAAA455F9927920B967745771E14C885ACC7207248778B8FCD459,MOBILE,0,,,,18000,TIME,2,2.5,3.5
1448525661000,UNKNOWN,51,0.0,,,,,,,,21BA9C15219503225B9A29D7BCF02E5DB7F879B53359B7811D5C4C264D66B72E,WIFI,0,edu.teco.moamoa,REMOVED,,34000,TIME,2.5,4,2
1448529856000,STILL,100,13.0,,,,,,,,680CB173B3BBE21BA64AA3DE9E94C9E0DA8CCF3C6F6C5AF8F3A1C03151BDAA79,NONE,1,edu.teco.moamoa,REMOVED,,31000,CONNECTIVITY_LOST,2.5,3.5,4
1448532000000,STILL,100,35.0,,,,,,,,680CB173B3BBE21BA64AA3DE9E94C9E0DA8CCF3C6F6C5AF8F3A1C03151BDAA79,WIFI,0,edu.teco.moamoa,REMOVED,,16000,TIME,2,3.5,4
1448534671000,STILL,66,13.0,,,,,,,,8870B85EC8CFAD97DF2B7115A36DC8E001656E3244AE1FFDD2CACEEF8B9D8CBC,NONE,1,edu.teco.moamoa,REMOVED,,28000,CONNECTIVITY_LOST,2,2.5,3.5
1448535600000,STILL,100,19.0,,,,,,,,99351362AF6A5DC761AA8D6ECEA8C8EBEED0AAAFB8C175A2BA1BA02070F713FC,MOBILE,1,edu.teco.moamoa,REMOVED,,22000,TIME,2,2,3.5
1448539070000,STILL,100,22.0,,,,,,,,A500253EBDDA05B6250753AC2546DDA39057C9F37411A817B5ABCB27804CF340,NONE,1,edu.teco.moamoa,REMOVED,,117000,CONNECTIVITY_LOST,2,2.5,2
1448542800000,STILL,58,0.0,,,,,,,,C53F1E268F56DE86D50A8C53814BF49A85FEE42A26E09B497B537DABBDF93A68,WIFI,0,edu.teco.moamoa,REMOVED,,15000,TIME,2.5,3,3.5
1448546400000,STILL,100,286.0,,,,,,,,7FC3FAD42920AC8F7610BA74DA6DD9350398EB8970A11DAB54928DE3D90591C9,WIFI,0,edu.teco.moamoa,REMOVED,,24000,TIME,2.5,3.5,3
1448549042000,TILTING,100,6.0,,,,,,,,CBF4EF3580F888604DC5E655B5DE5EB79D9915693A6C9394FBEE54EE866FBC1A,MOBILE,1,edu.teco.moamoa,REMOVED,,40000,CONNECTIVITY_LOST,2.5,3.5,2.5
1448550000000,STILL,100,0.0,,,,,,,,955CB9003F8B6225ED1B31C3D4452ED5128F00719596B7366B3C760A86207571,MOBILE,,edu.teco.moamoa,REMOVED,,13000,TIME,2.5,3.5,4.5
1448553600000,STILL,100,0.0,,,,,,,,CBF4EF3580F888604DC5E655B5DE5EB79D9915693A6C9394FBEE54EE866FBC1A,MOBILE,0,edu.teco.moamoa,REMOVED,,35000,TIME,3.5,4,3
1448557199000,TILTING,100,0.0,,,,,,,,6AB717006570253F7FEFAC301423BF462FEAE6C008B9228CD52688C35BCC3EFB,WIFI,0,edu.teco.moamoa,REMOVED,,38000,TIME,4,4,3
1448559503000,TILTING,100,2.0,,,,,,,,C53F1E268F56DE86D50A8C53814BF49A85FEE42A26E09B497B537DABBDF93A68,NONE,1,,,,28000,CONNECTIVITY_LOST,3.5,4,3.5
1448560799000,STILL,85,0.0,,,,,,,,C53F1E268F56DE86D50A8C53814BF49A85FEE42A26E09B497B537DABBDF93A68,WIFI,0,edu.teco.moamoa,REMOVED,,53000,TIME,3.5,5,3
1448564399000,UNKNOWN,38,0.0,[1295],[https://dav.nerven.gift/dav/cal/calendars/admin/94c25b9b-a9c4-45c8-a1ab-326f06926e06/],,,,,,C53F1E268F56DE86D50A8C53814BF49A85FEE42A26E09B497B537DABBDF93A68,WIFI,0,edu.teco.moamoa,REMOVED,,243000,TIME,4,4,2
1448568599000,UNKNOWN,56,0.0,[1295],[https://dav.nerven.gift/dav/cal/calendars/admin/94c25b9b-a9c4-45c8-a1ab-326f06926e06/],,,,,,99351362AF6A5DC761AA8D6ECEA8C8EBEED0AAAFB8C175A2BA1BA02070F713FC,WIFI,0,edu.teco.moamoa,REMOVED,,65000,TIME,4,5,4
1448571599000,STILL,69,0.0,[1295],[https://dav.nerven.gift/dav/cal/calendars/admin/94c25b9b-a9c4-45c8-a1ab-326f06926e06/],,,,,,99351362AF6A5DC761AA8D6ECEA8C8EBEED0AAAFB8C175A2BA1BA02070F713FC,WIFI,0,edu.teco.moamoa,REMOVED,,19000,TIME,4.5,5,4
1448575199000,UNKNOWN,46,0.0,[1295],[https://dav.nerven.gift/dav/cal/calendars/admin/94c25b9b-a9c4-45c8-a1ab-326f06926e06/],,,,,,99351362AF6A5DC761AA8D6ECEA8C8EBEED0AAAFB8C175A2BA1BA02070F713FC,WIFI,0,edu.teco.moamoa,REMOVED,,13000,TIME,4.5,5,3
1448578801000,UNKNOWN,64,0.0,,,,,,,,8870B85EC8CFAD97DF2B7115A36DC8E001656E3244AE1FFDD2CACEEF8B9D8CBC,WIFI,0,edu.teco.moamoa,REMOVED,,14000,CALENDAR_EVENT_END,4,5,4.5
1448581481000,TILTING,100,0.0,,,,,,,,680CB173B3BBE21BA64AA3DE9E94C9E0DA8CCF3C6F6C5AF8F3A1C03151BDAA79,MOBILE,1,,,,,INDEPENDENT,3,4,2.5
1448625600000,ON_FOOT,85,0.0,,,,,,,,B8CDCB88B04DA9EDD363AD80FBE0C450816F3CFEE8E6B466AC7A2CDEA96DBCE9,MOBILE,0,edu.teco.moamoa,REMOVED,,295000,TIME,2.5,3.5,3.5
1448629199000,STILL,100,0.0,,,,,,,,B6A8891D2C7996FE0DC645F30395EEB1E89E077C1A5FD9066431ABD602482300,WIFI,0,,,,12000,TIME,2.5,4,4
1448632800000,STILL,100,0.0,,,,,,,,B6A8891D2C7996FE0DC645F30395EEB1E89E077C1A5FD9066431ABD602482300,WIFI,0,edu.teco.moamoa,REMOVED,,11000,TIME,2,2.5,2.5
1448636400000,STILL,81,,,,,,,,,8870B85EC8CFAD97DF2B7115A36DC8E001656E3244AE1FFDD2CACEEF8B9D8CBC,WIFI,0,edu.teco.moamoa,REMOVED,,14000,TIME,2.5,2.5,3
1448639999000,STILL,66,0.0,,,,,,,,8870B85EC8CFAD97DF2B7115A36DC8E001656E3244AE1FFDD2CACEEF8B9D8CBC,WIFI,0,,,,12000,TIME,3,2.5,2
1448643600000,UNKNOWN,39,714.0,,,,,,,,FDF858EE55234EA23DD69607E500F0123DF54669A838FD91872E7133947DBACF,WIFI,1,edu.teco.moamoa,REMOVED,,47000,TIME,2,2.5,2
1448646217000,UNKNOWN,39,4.0,,,,,,,,C504CE7FC99CB9767D00BA7C9533DC550A3E1EBBED86D0AE69F0804848EA22F3,MOBILE,1,edu.teco.moamoa,REMOVED,,158000,MESSAGE_NEW,2.5,2,1.5
1448650800000,STILL,40,118.0,,,,,,,,2DD959AD5CB7164E9A7B168DC85FD5394917286FE70C91237348FA3D29A24551,MOBILE,1,edu.teco.moamoa,REMOVED,,22000,TIME,3,1.5,1
1448654700000,TILTING,100,279.0,,,,,,,,C53F1E268F56DE86D50A8C53814BF49A85FEE42A26E09B497B537DABBDF93A68,WIFI,0,edu.teco.moamoa,REMOVED,,107000,TIME,2.5,2,2
1448659801000,TILTING,100,154.0,,,,,,,,7FC3FAD42920AC8F7610BA74DA6DD9350398EB8970A11DAB54928DE3D90591C9,WIFI,0,edu.teco.moamoa,REMOVED,,58000,TIME,3,3.5,2.5
1448668800000,STILL,100,0.0,[1296],[https://dav.nerven.gift/dav/cal/calendars/admin/94c25b9b-a9c4-45c8-a1ab-326f06926e06/],,,,,,1C85D4217D738B9185366B3580A21B5C0BA95BFE67A3EA51C92B585120326EAB,WIFI,0,edu.teco.moamoa,REMOVED,,24000,CALENDAR_EVENT_START,3.5,2.5,2
1448746200000,UNKNOWN,64,0.0,[1296],[https://dav.nerven.gift/dav/cal/calendars/admin/94c25b9b-a9c4-45c8-a1ab-326f06926e06/],,,,,,08B327CD1E54D50478AC9C7BAF01E1258D15EF2D3971E0B1909FAB1F95DDAC97,MOBILE,0,edu.teco.moamoa,REMOVED,,52000,TIME,2,5,4
1448748299000,TILTING,100,0.0,[1296],[https://dav.nerven.gift/dav/cal/calendars/admin/94c25b9b-a9c4-45c8-a1ab-326f06926e06/],,,,,,F6E71E7CDBED329055C5B88E1F1E383D5F6A282A05C9B360F40EBBAD674CEED9,MOBILE,0,edu.teco.moamoa,REMOVED,,22000,TIME,2.5,5,4
1448757490000,TILTING,100,0.0,,,,,,,,725332965D1A9E084C1E15D9F37D5EF96FD64CE57E5BF316E5B4F411C0331F51,MOBILE,1,edu.teco.moamoa,REMOVED,,21000,CALENDAR_EVENT_END,3.5,4,2
1448806582000,TILTING,100,13.0,,,,,,,,502E03210C7A16D9FD7EF632F419BD1BC4EFEEA74F36AFEA43081293684C0C72,WIFI,1,,,,,INDEPENDENT,3.5,4,4.5
1448809200000,STILL,46,4.0,,,,,,,,5C489CDD0CBF9765F0278A90C941BF0B7DD378B42A229AEB5E4B63C8EDA34334,WIFI,1,edu.teco.moamoa,REMOVED,,33000,TIME,2,4.5,4
1448812800000,STILL,100,28.0,,,,,,,,5C489CDD0CBF9765F0278A90C941BF0B7DD378B42A229AEB5E4B63C8EDA34334,WIFI,0,edu.teco.moamoa,REMOVED,,13000,TIME,3.5,4,4.5
1448816400000,STILL,41,30.0,,,,,,,,63EB6DDAD97B62F27144605E9A2ED2D3A8F77DB2459C2F70420A0C5B285D8680,MOBILE,1,edu.teco.moamoa,REMOVED,,18000,TIME,2,2.5,3
1448820000000,TILTING,100,2.0,,,,,,,,3519678146B9D1E44C69E3036948F98436EE33E9BF5841743B679174E9DE1E78,WIFI,0,edu.teco.moamoa,REMOVED,,28000,TIME,3.5,4,4
1448823900000,TILTING,100,0.0,,,,,,,,F42AF75D97FE84911977291DE43157D9AD92AE338C186FB22ED5DC4931415904,WIFI,0,edu.teco.moamoa,REMOVED,,128000,TIME,2.5,4,4
1448827500000,STILL,100,0.0,,,,,,,,56D6ED9ADF0B699859495B5C0D4DC8435DAC711986C04635E0063A4F1A8A091B,WIFI,0,edu.teco.moamoa,REMOVED,,97000,TIME,3,4,4
1448832901000,STILL,100,0.0,,,,,,,,56D6ED9ADF0B699859495B5C0D4DC8435DAC711986C04635E0063A4F1A8A091B,WIFI,0,edu.teco.moamoa,REMOVED,,17000,TIME,2.5,4,4.5
1448842844000,STILL,100,195.0,,,,,,,,E87A90600E7770C9E1CABE83E54D362696C6BA08F5E694445BEC8B27184AC0A9,WIFI,0,,,,,INDEPENDENT,3,4,4.5
1448877600000,STILL,54,0.0,,,,,,,,21BA9C15219503225B9A29D7BCF02E5DB7F879B53359B7811D5C4C264D66B72E,WIFI,0,edu.teco.moamoa,REMOVED,,32000,TIME,1.5,2,3.5
1448881200000,TILTING,100,0.0,,,,,,,,99351362AF6A5DC761AA8D6ECEA8C8EBEED0AAAFB8C175A2BA1BA02070F713FC,WIFI,0,edu.teco.moamoa,REMOVED,,32000,TIME,2,3.5,4.5
1448886001000,STILL,37,24.0,,,,,,,,680CB173B3BBE21BA64AA3DE9E94C9E0DA8CCF3C6F6C5AF8F3A1C03151BDAA79,MOBILE,1,edu.teco.moamoa,REMOVED,,6000,TIME,2,3,2.5
1448888400000,STILL,100,13.0,,,,,,,,EFDD0F7E0F50B0DE755587CA71C301EA2649101600B6BF43280A3407481EFC74,WIFI,0,edu.teco.moamoa,REMOVED,,9000,TIME,2.5,4,4
1448892000000,STILL,100,10.0,,,,,,,,68CB481C0C90848AD7616908367688FF04C1DC324544F7963F3C6446BE854A52,WIFI,0,edu.teco.moamoa,REMOVED,,288000,TIME,3,4,4
1448895900000,TILTING,100,39.0,,,,,,,,68CB481C0C90848AD7616908367688FF04C1DC324544F7963F3C6446BE854A52,WIFI,0,edu.teco.moamoa,REMOVED,,39000,TIME,2.5,3.5,3
1448899200000,TILTING,100,32.0,,,,,,,,A86046BDBFD7146675F32B0F77815F8348FCF03932B3A0C69853DE79E5EF2284,WIFI,0,edu.teco.moamoa,REMOVED,,21000,TIME,2.5,3,2.5
1448902800000,STILL,100,35.0,,,,,,,,A86046BDBFD7146675F32B0F77815F8348FCF03932B3A0C69853DE79E5EF2284,WIFI,0,edu.teco.moamoa,REMOVED,,230000,TIME,2.5,4,2.5
1448907602000,UNKNOWN,52,2.0,,,,,,,,7434C4FC40D6640304170F18D8CBD4E7F698C57232A4C4C7AC6081B8A4D2BDD1,WIFI,0,edu.teco.moamoa,REMOVED,,8000,TIME,4,4,3
1448910301000,TILTING,100,0.0,,,,,,,,68CB481C0C90848AD7616908367688FF04C1DC324544F7963F3C6446BE854A52,WIFI,1,edu.teco.moamoa,REMOVED,,11000,TIME,4,5,4
1448921761000,TILTING,100,290.0,,,,,,,,B74371A102C49605CD6CC21239AE8B440FCE7563971B7140ECD59D803498CAC1,MOBILE,1,,,,,CONNECTIVITY_NEW,3,4,4.5
1448923016000,TILTING,100,30.0,,,,,,,,39382201D46B4FDCF00C3961EB0700FC92C581A55468C5085AB2B3E9632561A6,MOBILE,1,,,,27000,CONNECTIVITY_NEW,2,4.5,4.5
1448957903000,UNKNOWN,39,13.0,,,,,,,,EFDD0F7E0F50B0DE755587CA71C301EA2649101600B6BF43280A3407481EFC74,WIFI,1,,,,,CONNECTIVITY_NEW,2,2,1.5
1448960400000,STILL,100,0.0,,,,,,,,D5D273F63C157AA21BE737D0A8814ACAC139FB2A337E66416539E73383CEE338,WIFI,0,edu.teco.moamoa,REMOVED,,39000,TIME,2,2.5,2.5
1448964600000,ON_FOOT,92,0.0,,,,,,,,99351362AF6A5DC761AA8D6ECEA8C8EBEED0AAAFB8C175A2BA1BA02070F713FC,WIFI,0,edu.teco.moamoa,REMOVED,,103000,TIME,4,4,3.5
1448965791000,TILTING,100,2.0,,,,,,,,C798471F79FE3789F3360E5EA55E007CD7005A1139CA31CC195C35B330B1EFAC,NONE,1,,,,36000,CONNECTIVITY_LOST,3.5,2.5,2.5
1448967597000,STILL,60,0.0,,,,,,,,C798471F79FE3789F3360E5EA55E007CD7005A1139CA31CC195C35B330B1EFAC,WIFI,0,,,,24000,TIME,3,4,3
1448971798000,STILL,92,0.0,,,,,,,,7434C4FC40D6640304170F18D8CBD4E7F698C57232A4C4C7AC6081B8A4D2BDD1,WIFI,0,edu.teco.moamoa,REMOVED,,10000,TIME,2.5,3,3.5
1448974797000,STILL,85,0.0,,,,,,,,2483888B62C70D8AF53891322956B4AA4AD00E5DFEE406E49C1CC619C9031FBE,WIFI,0,,,,25000,TIME,2.5,2.5,3.5
1448978397000,STILL,100,0.0,,,,,,,,C798471F79FE3789F3360E5EA55E007CD7005A1139CA31CC195C35B330B1EFAC,WIFI,0,,,,48000,TIME,2.5,3.5,3.5
1448982298000,TILTING,100,114.0,,,,,,,,27DF98C01F11EC760E1231E7C5747FE577259315482BD4B92895148E28DABA3F,WIFI,0,edu.teco.moamoa,REMOVED,,25000,TIME,2.5,3,3.5
1448987101000,TILTING,100,0.0,,,,,,,,7FC3FAD42920AC8F7610BA74DA6DD9350398EB8970A11DAB54928DE3D90591C9,WIFI,0,edu.teco.moamoa,REMOVED,,79000,TIME,4,3,2.5
1448992951000,TILTING,100,0.0,,,,,,,,D913E75D3D9B2D82C39891FE2D82603E38508E61F0CD0FD44125800E29BD65B4,MOBILE,1,,,,,INDEPENDENT,2.5,4,2.5
1448996399000,STILL,66,0.0,,,,,,,,DAB892F95414F8C43603E2B6822BA2AEFA323378060DCDE5A0678E868098497F,WIFI,0,edu.teco.moamoa,REMOVED,,54000,TIME,2.5,3.5,3.5
1449000899000,STILL,100,0.0,,,,,,,,DCDCAD94CC05A5F5B6CCAB40983350AE3F81EC4B2B20F5FD4260C642E96E4493,WIFI,0,edu.teco.moamoa,REMOVED,,44000,TIME,4,3.5,4
1449003599000,IN_VEHICLE,46,114.0,,,,,,,,DCDCAD94CC05A5F5B6CCAB40983350AE3F81EC4B2B20F5FD4260C642E96E4493,WIFI,1,edu.teco.moamoa,REMOVED,,45000,TIME,2.5,3.5,3
1449007199000,STILL,62,125.0,,,,,,,,CF476AD0418FBCA7B0904E96991EB54F8E47C392756F552C232D0052B063378E,WIFI,1,edu.teco.moamoa,REMOVED,,94000,TIME,2,2,4
1449012298000,TILTING,100,48.0,,,,,,,,1C85D4217D738B9185366B3580A21B5C0BA95BFE67A3EA51C92B585120326EAB,WIFI,1,,,,24000,CONNECTIVITY_NEW,2.5,4,3
1449046799000,STILL,100,0.0,,,,,,,,99351362AF6A5DC761AA8D6ECEA8C8EBEED0AAAFB8C175A2BA1BA02070F713FC,WIFI,0,edu.teco.moamoa,REMOVED,,40000,TIME,1,2.5,3.5
1449047970000,STILL,100,30.0,,,,,,,,680CB173B3BBE21BA64AA3DE9E94C9E0DA8CCF3C6F6C5AF8F3A1C03151BDAA79,NONE,1,,,,40000,CONNECTIVITY_LOST,2,3.5,4
1449050399000,STILL,100,32.0,,,,,,,,680CB173B3BBE21BA64AA3DE9E94C9E0DA8CCF3C6F6C5AF8F3A1C03151BDAA79,MOBILE,0,edu.teco.moamoa,REMOVED,,26000,TIME,2,3,3.5
1449054600000,STILL,100,0.0,,,,,,,,1320A970AC8424FFAB89C9C8AA2F5D17FEBA8E00D0F7D6B7F74409FCBA24A17A,WIFI,0,edu.teco.moamoa,REMOVED,,26000,TIME,2.5,2.5,2
1449056123000,STILL,42,24.0,,,,,,,,8A19DA672FC5F9337FE115285B35A241CC338BC185B08CCF71EA7A9082B7A343,,1,edu.teco.moamoa,REMOVED,,41000,CONNECTIVITY_LOST,2,2.5,4
1449057600000,TILTING,100,0.0,,,,,,,,8A19DA672FC5F9337FE115285B35A241CC338BC185B08CCF71EA7A9082B7A343,MOBILE,0,edu.teco.moamoa,REMOVED,,34000,TIME,3,4,2
1449061199000,TILTING,100,0.0,,,,,,,,FDF858EE55234EA23DD69607E500F0123DF54669A838FD91872E7133947DBACF,MOBILE,0,,,,28000,TIME,4,3.5,2
1449064800000,TILTING,100,0.0,,,,,,,,99351362AF6A5DC761AA8D6ECEA8C8EBEED0AAAFB8C175A2BA1BA02070F713FC,WIFI,0,edu.teco.moamoa,REMOVED,,32000,TIME,3,2.5,3
1449066805000,TILTING,100,0.0,,,,,,,,99351362AF6A5DC761AA8D6ECEA8C8EBEED0AAAFB8C175A2BA1BA02070F713FC,WIFI,1,edu.teco.moamoa,REMOVED,,28000,CONNECTIVITY_NEW,2.5,3,2
1449069000000,ON_FOOT,100,2.0,,,,,,,,C13ED0715D85EAFDE1FB82A785D446E6ADE999DD7CA82B3341631A85906A881B,MOBILE,0,edu.teco.moamoa,REMOVED,,19000,TIME,3.5,2.5,2
1449071999000,TILTING,100,0.0,,,,,,,,8F2A51BE397C583699590B71E4A88F08950B0A1B2E2F493D93D241BACAAEC88F,WIFI,0,edu.teco.moamoa,REMOVED,,15000,TIME,3.5,4,4
1449076800000,IN_VEHICLE,48,19.0,,,,,,,,8F2A51BE397C583699590B71E4A88F08950B0A1B2E2F493D93D241BACAAEC88F,WIFI,1,edu.teco.moamoa,REMOVED,,17000,TIME,2,3,4
1449082609000,STILL,60,6.0,,,,,,,,7FC3FAD42920AC8F7610BA74DA6DD9350398EB8970A11DAB54928DE3D90591C9,WIFI,1,,,,,TIME,3.5,4,2.5
1449086400000,STILL,52,0.0,,,,,,,,34E82B0404CECFDC0B26B6D9F0830111C87D8BF63C36C4FBA9A073E7F10A2E92,MOBILE,0,edu.teco.moamoa,REMOVED,,17000,TIME,2,2,3.5
1449090000000,IN_VEHICLE,50,61.0,,,,,,,,B8CDCB88B04DA9EDD363AD80FBE0C450816F3CFEE8E6B466AC7A2CDEA96DBCE9,WIFI,1,edu.teco.moamoa,REMOVED,,23000,TIME,3,3.5,2.5
1449093599000,STILL,100,651.0,,,,,,,,D8CFDBE9CEFCC55AB5E63383BED2C4B0312E2558090D81230855900DD8AEF88C,WIFI,0,edu.teco.moamoa,REMOVED,,19000,TIME,2,4,4
1449136924000,TILTING,100,325.0,,,,,,,,90B1C0E2EB98F167142483CA078E41A6B3306FE40B062D87C77592A99DF404F0,MOBILE,1,,,,,TIME,2,3.5,2.5
1449138951000,IN_VEHICLE,54,118.0,,,,,,,,8A19DA672FC5F9337FE115285B35A241CC338BC185B08CCF71EA7A9082B7A343,NONE,1,edu.teco.moamoa,REMOVED,,73000,CONNECTIVITY_LOST,2,1.5,2
1449140400000,STILL,81,125.0,,,,,,,,8A19DA672FC5F9337FE115285B35A241CC338BC185B08CCF71EA7A9082B7A343,MOBILE,1,edu.teco.moamoa,REMOVED,,17000,TIME,2.5,2.5,3.5
1449144000000,TILTING,100,0.0,,,,,,,,8A19DA672FC5F9337FE115285B35A241CC338BC185B08CCF71EA7A9082B7A343,MOBILE,0,edu.teco.moamoa,REMOVED,,26000,TIME,3,2.5,2
1449145801000,STILL,100,48.0,[1281],[https://dav.nerven.gift/dav/cal/calendars/admin/94c25b9b-a9c4-45c8-a1ab-326f06926e06/],,,,,,04D79CA5CA3B8EB4A1C48B4BE8B77111B8E0FA167A79B60FE6AAD2ED9FCB0089,MOBILE,0,edu.teco.moamoa,REMOVED,,82000,CALENDAR_EVENT_START,3,2.5,2
1449150939000,,,96.0,[1281],[https://dav.nerven.gift/dav/cal/calendars/admin/94c25b9b-a9c4-45c8-a1ab-326f06926e06/],,,,,,866ED45E4C4B8C5CD06CC55274096A1A84FABDFAD8343615256833948592A1B2,WIFI,1,edu.teco.moamoa,REMOVED,,20000,CALENDAR_EVENT_START,2.5,4,4.5
1449153302000,STILL,39,0.0,,,,,,,,866ED45E4C4B8C5CD06CC55274096A1A84FABDFAD8343615256833948592A1B2,WIFI,0,edu.teco.moamoa,REMOVED,,12000,CALENDAR_EVENT_END,3.5,4,4
1449155815000,UNKNOWN,58,0.0,,,,,,,,6AB717006570253F7FEFAC301423BF462FEAE6C008B9228CD52688C35BCC3EFB,MOBILE,0,edu.teco.moamoa,REMOVED,,133000,CONNECTIVITY_LOST,4,4,2.5
1449158699000,STILL,100,2.0,,,,,,,,D5D273F63C157AA21BE737D0A8814ACAC139FB2A337E66416539E73383CEE338,WIFI,0,edu.teco.moamoa,REMOVED,,22000,TIME,2,4,4
1449161999000,STILL,100,28.0,,,,,,,,A86046BDBFD7146675F32B0F77815F8348FCF03932B3A0C69853DE79E5EF2284,WIFI,0,edu.teco.moamoa,REMOVED,,31000,TIME,4,2.5,3
1449165599000,STILL,100,32.0,,,,,,,,68CB481C0C90848AD7616908367688FF04C1DC324544F7963F3C6446BE854A52,WIFI,0,edu.teco.moamoa,REMOVED,,35000,TIME,4.5,4,3.5
1449225133000,,,41.0,,,,,,,,8870B85EC8CFAD97DF2B7115A36DC8E001656E3244AE1FFDD2CACEEF8B9D8CBC,MOBILE,1,,,,,MESSAGE_NEW,2,3,2
1449226800000,TILTING,100,0.0,,,,,,,,8870B85EC8CFAD97DF2B7115A36DC8E001656E3244AE1FFDD2CACEEF8B9D8CBC,WIFI,0,edu.teco.moamoa,REMOVED,,35000,TIME,3,4,4
1449231000000,STILL,100,35.0,,,,,,,,41C70331419D7952A83F6116AC69668FA8318E1DFE6939E6D5538D6DFA86E6CC,WIFI,0,edu.teco.moamoa,REMOVED,,21000,TIME,4,4.5,2
1449234600000,STILL,100,39.0,,,,,,,,41C70331419D7952A83F6116AC69668FA8318E1DFE6939E6D5538D6DFA86E6CC,WIFI,0,edu.teco.moamoa,REMOVED,,30000,TIME,4,2.5,3
1449236052000,ON_FOOT,100,2008.0,,,,,,,,68CB481C0C90848AD7616908367688FF04C1DC324544F7963F3C6446BE854A52,NONE,1,,,,23000,CONNECTIVITY_LOST,4,4,3
1449237599000,IN_VEHICLE,51,514.0,,,,,,,,48293565BDF57B8A869F6922EA750AA1FE01D93B5FAF3B49C9BCB20F16C5E8B5,MOBILE,1,edu.teco.moamoa,REMOVED,,13000,TIME,3,2,2
1449241198000,STILL,100,28.0,,,,,,,,D5D273F63C157AA21BE737D0A8814ACAC139FB2A337E66416539E73383CEE338,WIFI,1,edu.teco.moamoa,REMOVED,,21000,TIME,2.5,2.5,1.5
1449244798000,UNKNOWN,62,4.0,,,,,,,,A86046BDBFD7146675F32B0F77815F8348FCF03932B3A0C69853DE79E5EF2284,WIFI,1,,,,148000,TIME,1.5,2,3.5
1449248398000,STILL,92,0.0,,,,,,,,A86046BDBFD7146675F32B0F77815F8348FCF03932B3A0C69853DE79E5EF2284,WIFI,0,edu.teco.moamoa,REMOVED,,35000,TIME,2,2,3.5
1449252299000,UNKNOWN,77,0.0,,,,,,,,A86046BDBFD7146675F32B0F77815F8348FCF03932B3A0C69853DE79E5EF2284,WIFI,0,edu.teco.moamoa,REMOVED,,26000,TIME,2.5,2,2
1449257736000,TILTING,100,19.0,,,,,,,,A86046BDBFD7146675F32B0F77815F8348FCF03932B3A0C69853DE79E5EF2284,WIFI,1,,,,,INDEPENDENT,3,4,2
1449259500000,STILL,100,0.0,,,,,,,,A86046BDBFD7146675F32B0F77815F8348FCF03932B3A0C69853DE79E5EF2284,WIFI,0,edu.teco.moamoa,REMOVED,,18000,TIME,2.5,3.5,4
1449262800000,TILTING,100,35.0,,,,,,,,A86046BDBFD7146675F32B0F77815F8348FCF03932B3A0C69853DE79E5EF2284,WIFI,0,edu.teco.moamoa,REMOVED,,91000,TIME,3.5,3.5,2
1449266328000,ON_FOOT,46,145.0,,,,,,,,C47529A192B2F589A5437EF2AF9F4970DDB2FD419CA4E12F8E6348EBCACC95E4,MOBILE,1,,,,,INDEPENDENT,3,3,2
1449282344000,,,68.0,,,,,,,,68CB481C0C90848AD7616908367688FF04C1DC324544F7963F3C6446BE854A52,WIFI,1,,,,,INDEPENDENT,2.5,4.5,4
1449309600000,STILL,75,0.0,,,,,,,,EFDD0F7E0F50B0DE755587CA71C301EA2649101600B6BF43280A3407481EFC74,WIFI,0,,,,28000,TIME,3,5,3
1449313501000,ON_FOOT,100,0.0,,,,,,,,7FC3FAD42920AC8F7610BA74DA6DD9350398EB8970A11DAB54928DE3D90591C9,MOBILE,0,,,,13000,TIME,4,4,3.5
1449318000000,STILL,100,48.0,,,,,,,,C53F1E268F56DE86D50A8C53814BF49A85FEE42A26E09B497B537DABBDF93A68,WIFI,0,,,,23000,TIME,3.5,4,4
1449320400000,STILL,100,0.0,,,,,,,,7FC3FAD42920AC8F7610BA74DA6DD9350398EB8970A11DAB54928DE3D90591C9,WIFI,0,,,,24000,TIME,3.5,4,4
1449324000000,STILL,55,0.0,,,,,,,,C53F1E268F56DE86D50A8C53814BF49A85FEE42A26E09B497B537DABBDF93A68,MOBILE,0,edu.teco.moamoa,REMOVED,,16000,TIME,2.5,4,4
1449327987000,TILTING,100,0.0,,,,,,,,F1391583463A3C3CDE566377A54F89763DB95EEE98B7D17A9631A2585544BFF3,MOBILE,1,,,,,TIME,3.5,4,4
1449331200000,IN_VEHICLE,37,0.0,,,,,,,,F1391583463A3C3CDE566377A54F89763DB95EEE98B7D17A9631A2585544BFF3,MOBILE,1,edu.teco.moamoa,REMOVED,,44000,TIME,3,4.5,4.5
1449334800000,STILL,100,2.0,,,,,,,,2925055D58DF7134FB0525B34A34A3C8AD1205251FAD7BA9714728D35BC71699,MOBILE,0,edu.teco.moamoa,REMOVED,,11000,TIME,4,4.5,4
1449338400000,STILL,100,2.0,,,,,,,,F1391583463A3C3CDE566377A54F89763DB95EEE98B7D17A9631A2585544BFF3,MOBILE,0,edu.teco.moamoa,REMOVED,,15000,TIME,3,4,4
1449342600000,STILL,100,0.0,,,,,,,,478E3C767F56DF1AB2A9CAD52C3111578DFCB0BB1F5F1E42F44E1B50AEE26E33,MOBILE,0,edu.teco.moamoa,REMOVED,,11000,TIME,2.5,4,3
1449346800000,STILL,92,0.0,,,,,,,,478E3C767F56DF1AB2A9CAD52C3111578DFCB0BB1F5F1E42F44E1B50AEE26E33,MOBILE,0,edu.teco.moamoa,REMOVED,,69000,TIME,3,4.5,4
1449349200000,TILTING,100,4.0,,,,,,,,478E3C767F56DF1AB2A9CAD52C3111578DFCB0BB1F5F1E42F44E1B50AEE26E33,MOBILE,0,edu.teco.moamoa,REMOVED,,12000,TIME,1.5,4,4
1449407009000,,,19.0,[1139],[Geburtstage],,,,,,A86046BDBFD7146675F32B0F77815F8348FCF03932B3A0C69853DE79E5EF2284,WIFI,1,edu.teco.moamoa,REMOVED,,25000,CALENDAR_EVENT_START,4,5.5,4.5
1449410400000,STILL,46,0.0,[1139],[Geburtstage],,,,,,A86046BDBFD7146675F32B0F77815F8348FCF03932B3A0C69853DE79E5EF2284,WIFI,0,edu.teco.moamoa,REMOVED,,31000,TIME,2.5,6,5
1449414000000,IN_VEHICLE,100,0.0,[1139],[Geburtstage],,,,,,B2F690B220738A79C5732C1B4EF0F501BC1754D7B332E04856B51A44AF5ECD0A,MOBILE,0,edu.teco.moamoa,REMOVED,,12000,TIME,2,4.5,1.5
1449417600000,ON_FOOT,92,2.0,[1139],[Geburtstage],,,,,,C53F1E268F56DE86D50A8C53814BF49A85FEE42A26E09B497B537DABBDF93A68,MOBILE,0,edu.teco.moamoa,REMOVED,,40000,TIME,2.5,3,4
1449421200000,STILL,48,0.0,[1139],[Geburtstage],,,,,,680CB173B3BBE21BA64AA3DE9E94C9E0DA8CCF3C6F6C5AF8F3A1C03151BDAA79,WIFI,0,edu.teco.moamoa,REMOVED,,207000,TIME,3,3,3.5
1449424800000,STILL,100,0.0,[1139],[Geburtstage],,,,,,7FC3FAD42920AC8F7610BA74DA6DD9350398EB8970A11DAB54928DE3D90591C9,WIFI,0,edu.teco.moamoa,REMOVED,,12000,TIME,1.5,2.5,4
1449428400000,STILL,54,6.0,[1139],[Geburtstage],,,,,,4C51218E66A3591A2539FFC52D6011D0E6B0ED9C82DFE2ABF3095E7C24999654,MOBILE,1,edu.teco.moamoa,REMOVED,,28000,TIME,1,2,3.5
1449431999000,TILTING,100,22.0,[1139],[Geburtstage],,,,,,1C85D4217D738B9185366B3580A21B5C0BA95BFE67A3EA51C92B585120326EAB,WIFI,1,edu.teco.moamoa,REMOVED,,48000,TIME,1,2,4.5
1449435600000,STILL,100,2.0,[1139],[Geburtstage],,,,,,CCBC981F84495E421B0581DA0A60E04D850E8C72F8FE0E0CDDAFE626144EBF90,WIFI,0,edu.teco.moamoa,REMOVED,,21000,TIME,0.5,3,3.5
1449565319000,TILTING,100,211.0,,,,,,,,92AAF11E864839709401CF0868AC61C8931F299278D3943A2DBCCDAD0C6935A1,WIFI,1,,,,,INDEPENDENT,2,3,3.5
1449568800000,ON_FOOT,100,0.0,,,,,,,,B6A8891D2C7996FE0DC645F30395EEB1E89E077C1A5FD9066431ABD602482300,MOBILE,0,edu.teco.moamoa,REMOVED,,148000,TIME,2.5,3.5,2.5
1449572700000,STILL,100,0.0,,,,,,,,99351362AF6A5DC761AA8D6ECEA8C8EBEED0AAAFB8C175A2BA1BA02070F713FC,WIFI,0,edu.teco.moamoa,REMOVED,,238000,TIME,2,3.5,2.5
1449576000000,UNKNOWN,42,81.0,,,,,,,,B6A8891D2C7996FE0DC645F30395EEB1E89E077C1A5FD9066431ABD602482300,WIFI,1,edu.teco.moamoa,REMOVED,,20000,TIME,2,3.5,1.5
1449578089000,TILTING,100,28.0,,,,,,,,99351362AF6A5DC761AA8D6ECEA8C8EBEED0AAAFB8C175A2BA1BA02070F713FC,NONE,1,,,,38000,CONNECTIVITY_LOST,2,2.5,2.5
1449579900000,STILL,100,0.0,,,,,,,,FDF858EE55234EA23DD69607E500F0123DF54669A838FD91872E7133947DBACF,MOBILE,0,edu.teco.moamoa,REMOVED,,42000,TIME,2,4,4
1449583500000,STILL,92,0.0,,,,,,,,C53F1E268F56DE86D50A8C53814BF49A85FEE42A26E09B497B537DABBDF93A68,MOBILE,0,edu.teco.moamoa,REMOVED,,62000,TIME,2.5,2.5,2.5
1449586800000,STILL,46,0.0,,,,,,,,C53F1E268F56DE86D50A8C53814BF49A85FEE42A26E09B497B537DABBDF93A68,MOBILE,0,edu.teco.moamoa,REMOVED,,61000,TIME,2.5,3,4
1449590400000,TILTING,100,63.0,,,,,,,,C53F1E268F56DE86D50A8C53814BF49A85FEE42A26E09B497B537DABBDF93A68,MOBILE,1,edu.teco.moamoa,REMOVED,,57000,TIME,3,2.5,3.5
1449594000000,TILTING,100,72.0,,,,,,,,C53F1E268F56DE86D50A8C53814BF49A85FEE42A26E09B497B537DABBDF93A68,MOBILE,0,edu.teco.moamoa,REMOVED,,38000,TIME,2,2.5,3
1449598200000,TILTING,100,0.0,,,,,,,,7FC3FAD42920AC8F7610BA74DA6DD9350398EB8970A11DAB54928DE3D90591C9,MOBILE,0,edu.teco.moamoa,REMOVED,,19000,TIME,3,2,2
1449601800000,STILL,54,0.0,,,,,,,,8870B85EC8CFAD97DF2B7115A36DC8E001656E3244AE1FFDD2CACEEF8B9D8CBC,MOBILE,0,edu.teco.moamoa,REMOVED,,24000,TIME,2.5,2.5,3
1449646173000,TILTING,100,2.0,,,,,,,,FAB133001287376F1B09DF58ACF7B023CF37E9121365FBEAF99C6DC37E8C7C23,WIFI,1,,,,,INDEPENDENT,2,3,2
1449652199000,STILL,100,0.0,[1297],[https://dav.nerven.gift/dav/cal/calendars/admin/94c25b9b-a9c4-45c8-a1ab-326f06926e06/],,,,,,7434C4FC40D6640304170F18D8CBD4E7F698C57232A4C4C7AC6081B8A4D2BDD1,WIFI,0,edu.teco.moamoa,REMOVED,,38000,TIME,3,3.5,2
1449655498000,TILTING,100,0.0,[1297],[https://dav.nerven.gift/dav/cal/calendars/admin/94c25b9b-a9c4-45c8-a1ab-326f06926e06/],,,,,,52B1F13D74B141FACF6F3D55F719FC4FEA879F0AD9A69444EFB110CC2CD19575,WIFI,0,edu.teco.moamoa,REMOVED,,23000,TIME,2,3,2
1449658322000,,,528.0,[1297],[https://dav.nerven.gift/dav/cal/calendars/admin/94c25b9b-a9c4-45c8-a1ab-326f06926e06/],,,,,,27DF98C01F11EC760E1231E7C5747FE577259315482BD4B92895148E28DABA3F,WIFI,1,edu.teco.moamoa,REMOVED,,13000,CALENDAR_EVENT_START,2,2.5,2
1449660601000,TILTING,100,0.0,,,,,,,,27DF98C01F11EC760E1231E7C5747FE577259315482BD4B92895148E28DABA3F,WIFI,0,edu.teco.moamoa,REMOVED,,59000,CALENDAR_EVENT_END,2,2,2
1449663600000,TILTING,100,0.0,,,,,,,,52B1F13D74B141FACF6F3D55F719FC4FEA879F0AD9A69444EFB110CC2CD19575,WIFI,0,edu.teco.moamoa,REMOVED,,25000,TIME,3,3.5,2.5
1449666000000,TILTING,100,2.0,,,,,,,,C798471F79FE3789F3360E5EA55E007CD7005A1139CA31CC195C35B330B1EFAC,WIFI,0,edu.teco.moamoa,REMOVED,,21000,TIME,4,2.5,2
1449669600000,TILTING,100,0.0,,,,,,,,C798471F79FE3789F3360E5EA55E007CD7005A1139CA31CC195C35B330B1EFAC,WIFI,0,edu.teco.moamoa,REMOVED,,35000,TIME,3,2,2.5
1449674401000,STILL,79,0.0,,,,,,,,A86046BDBFD7146675F32B0F77815F8348FCF03932B3A0C69853DE79E5EF2284,WIFI,0,edu.teco.moamoa,REMOVED,,12000,TIME,3,4.5,4
1449676800000,STILL,100,35.0,,,,,,,,68CB481C0C90848AD7616908367688FF04C1DC324544F7963F3C6446BE854A52,WIFI,0,edu.teco.moamoa,REMOVED,,198000,TIME,3,4,4
1449684684000,STILL,43,10.0,,,,,,,,68CB481C0C90848AD7616908367688FF04C1DC324544F7963F3C6446BE854A52,WIFI,1,,,,,INDEPENDENT,4,4.5,4.5
1449687600000,STILL,77,2.0,,,,,,,,D5D273F63C157AA21BE737D0A8814ACAC139FB2A337E66416539E73383CEE338,WIFI,1,edu.teco.moamoa,REMOVED,,26000,TIME,2.5,4.5,5.5
1449691200000,STILL,100,4.0,,,,,,,,EFDD0F7E0F50B0DE755587CA71C301EA2649101600B6BF43280A3407481EFC74,WIFI,0,edu.teco.moamoa,REMOVED,,8000,TIME,3.5,4,4
1449694800000,TILTING,100,4.0,,,,,,,,EFDD0F7E0F50B0DE755587CA71C301EA2649101600B6BF43280A3407481EFC74,WIFI,0,edu.teco.moamoa,REMOVED,,25000,TIME,3.5,5,4.5
1449737831000,,,6.0,[1131],[Geburtstage],,,,,,4C51218E66A3591A2539FFC52D6011D0E6B0ED9C82DFE2ABF3095E7C24999654,WIFI,1,edu.teco.moamoa,REMOVED,,28000,CALENDAR_EVENT_START,2,2,3.5
1449741600000,STILL,100,0.0,[1131],[Geburtstage],,,,,,4C51218E66A3591A2539FFC52D6011D0E6B0ED9C82DFE2ABF3095E7C24999654,WIFI,0,edu.teco.moamoa,REMOVED,,12000,TIME,2.5,3,2.5
1449745028000,STILL,100,79.0,[1131],[Geburtstage],,,,,,CBF4EF3580F888604DC5E655B5DE5EB79D9915693A6C9394FBEE54EE866FBC1A,NONE,1,eu.siacs.conversations,REMOVED,,18000,CONNECTIVITY_LOST,2,3,4
1449748731000,ON_FOOT,100,0.0,[1131],[Geburtstage],,,,,,A500253EBDDA05B6250753AC2546DDA39057C9F37411A817B5ABCB27804CF340,MOBILE,0,edu.teco.moamoa,REMOVED,,226000,CONNECTIVITY_LOST,2.5,3,4
1449752398000,UNKNOWN,69,2.0,[1131],[Geburtstage],,,,,,7FC3FAD42920AC8F7610BA74DA6DD9350398EB8970A11DAB54928DE3D90591C9,WIFI,0,,,,15000,TIME,2.5,3.5,3.5
1449755998000,TILTING,100,0.0,[1131],[Geburtstage],,,,,,7FC3FAD42920AC8F7610BA74DA6DD9350398EB8970A11DAB54928DE3D90591C9,WIFI,1,edu.teco.moamoa,REMOVED,,45000,TIME,2.5,2.5,3
1449758807000,STILL,100,0.0,[1131],[Geburtstage],,,,,,99351362AF6A5DC761AA8D6ECEA8C8EBEED0AAAFB8C175A2BA1BA02070F713FC,NONE,1,edu.teco.moamoa,REMOVED,,45000,CONNECTIVITY_LOST,2,3,3.5
1449761437000,STILL,85,0.0,[1131],[Geburtstage],,,,,,99351362AF6A5DC761AA8D6ECEA8C8EBEED0AAAFB8C175A2BA1BA02070F713FC,NONE,1,edu.teco.moamoa,REMOVED,,24000,CONNECTIVITY_LOST,2,3,4.5
1449763198000,STILL,39,0.0,[1131],[Geburtstage],,,,,,8870B85EC8CFAD97DF2B7115A36DC8E001656E3244AE1FFDD2CACEEF8B9D8CBC,MOBILE,0,edu.teco.moamoa,REMOVED,,30000,TIME,1.5,3,4
1449769008000,,,0.0,[1131],[Geburtstage],,,,,,C53F1E268F56DE86D50A8C53814BF49A85FEE42A26E09B497B537DABBDF93A68,MOBILE,1,edu.teco.moamoa,REMOVED,,43000,CALENDAR_EVENT_START,2,3,4.5
1449770400000,ON_FOOT,60,0.0,[1131],[Geburtstage],,,,,,C53F1E268F56DE86D50A8C53814BF49A85FEE42A26E09B497B537DABBDF93A68,WIFI,0,edu.teco.moamoa,REMOVED,,12000,TIME,3.5,4,2.5
1449773189000,TILTING,100,2.0,[1131],[Geburtstage],,,,,,56D6ED9ADF0B699859495B5C0D4DC8435DAC711986C04635E0063A4F1A8A091B,WIFI,1,com.ubergeek42.WeechatAndroid,POSTED,,197000,CONNECTIVITY_NEW,3,4,4
1449832225000,TILTING,100,2490.0,,,,,,,,8870B85EC8CFAD97DF2B7115A36DC8E001656E3244AE1FFDD2CACEEF8B9D8CBC,WIFI,1,,,,,INDEPENDENT,3.5,4,3.5
1449835199000,STILL,46,0.0,,,,,,,,7E5DC4C7E7DDB159A81D0C2192C946E87DCE4CB97FA37E3C15FD132EC0EBAE16,WIFI,0,edu.teco.moamoa,REMOVED,,20000,TIME,3,3.5,2
1449839700000,TILTING,100,0.0,,,,,,,,56D6ED9ADF0B699859495B5C0D4DC8435DAC711986C04635E0063A4F1A8A091B,MOBILE,0,edu.teco.moamoa,REMOVED,,21000,TIME,3.5,4,3.5
1449842399000,TILTING,100,0.0,,,,,,,,53C6B4401C9A42FE4AF0ADE08564AF74E55D8180FEB4806F52DE65F9AD63224F,WIFI,0,edu.teco.moamoa,REMOVED,,68000,TIME,4,3,3
1449846299000,TILTING,100,0.0,,,,,,,,A86046BDBFD7146675F32B0F77815F8348FCF03932B3A0C69853DE79E5EF2284,WIFI,0,edu.teco.moamoa,REMOVED,,28000,TIME,4,2,2.5
1449849599000,TILTING,100,13.0,,,,,,,,A86046BDBFD7146675F32B0F77815F8348FCF03932B3A0C69853DE79E5EF2284,WIFI,0,edu.teco.moamoa,REMOVED,,48000,TIME,3,4,4.5
1449853776000,TILTING,100,15.0,,,,,,,,A86046BDBFD7146675F32B0F77815F8348FCF03932B3A0C69853DE79E5EF2284,WIFI,1,,,,,INDEPENDENT,4,4,3
1449856800000,STILL,100,0.0,,,,,,,,A86046BDBFD7146675F32B0F77815F8348FCF03932B3A0C69853DE79E5EF2284,WIFI,0,edu.teco.moamoa,REMOVED,,9000,TIME,3.5,2,2.5
1449860700000,STILL,92,0.0,[1298],[https://dav.nerven.gift/dav/cal/calendars/admin/94c25b9b-a9c4-45c8-a1ab-326f06926e06/],,,,,,4C51218E66A3591A2539FFC52D6011D0E6B0ED9C82DFE2ABF3095E7C24999654,MOBILE,0,edu.teco.moamoa,REMOVED,,29000,TIME,4,4,3.5
1449864000000,STILL,69,0.0,[1298],[https://dav.nerven.gift/dav/cal/calendars/admin/94c25b9b-a9c4-45c8-a1ab-326f06926e06/],,,,,,4C51218E66A3591A2539FFC52D6011D0E6B0ED9C82DFE2ABF3095E7C24999654,MOBILE,0,edu.teco.moamoa,REMOVED,,7000,TIME,4,5,3
1449867600000,STILL,85,0.0,,,,,,,,680CB173B3BBE21BA64AA3DE9E94C9E0DA8CCF3C6F6C5AF8F3A1C03151BDAA79,MOBILE,0,edu.teco.moamoa,REMOVED,,11000,TIME,2.5,3.5,2
1449871302000,TILTING,100,0.0,,,,,,,,98E4D161E384CCB93AF8139123E34B6D7C2D15931353AA091827E954825CC5CD,MOBILE,1,,,,,INDEPENDENT,2.5,4.5,4.5
1449883036000,TILTING,100,0.0,,,,,,,,EFDD0F7E0F50B0DE755587CA71C301EA2649101600B6BF43280A3407481EFC74,NONE,1,edu.teco.moamoa,REMOVED,,18000,CONNECTIVITY_LOST,3.5,4,4.5
1449922383000,TILTING,100,19.0,,,,,,,,D5D273F63C157AA21BE737D0A8814ACAC139FB2A337E66416539E73383CEE338,WIFI,1,,,,,INDEPENDENT,3,2.5,3
1449925200000,TILTING,100,0.0,,,,,,,,68CB481C0C90848AD7616908367688FF04C1DC324544F7963F3C6446BE854A52,WIFI,0,edu.teco.moamoa,REMOVED,,8000,TIME,3.5,2.5,3
1449929700000,STILL,37,0.0,,,,,,,,095ABD7F374F0EA7D74393A59B86626597328E9D10E5CEC1F5AB1B7B47EE6787,MOBILE,0,,,,10000,TIME,4,3,2
1449933301000,TILTING,100,19.0,,,,,,,,BB532B8C9297AE1259018868F5D4F33B0C9025CBA1F6A2F7455BF66B2B181A76,WIFI,1,edu.teco.moamoa,REMOVED,,1000,TIME,3.5,4,4
1449936000000,STILL,100,154.0,,,,,,,,8F2A51BE397C583699590B71E4A88F08950B0A1B2E2F493D93D241BACAAEC88F,WIFI,0,edu.teco.moamoa,REMOVED,,38000,TIME,3.5,3.5,4.5
1449939600000,TILTING,100,0.0,,,,,,,,EB75CB83AB25364DEADA6A3327B2C9C9CAF5959C89A91020032FFA0A0FA24C83,WIFI,0,edu.teco.moamoa,REMOVED,,9000,TIME,3.5,4,4
1449944401000,TILTING,100,0.0,,,,,,,,EB75CB83AB25364DEADA6A3327B2C9C9CAF5959C89A91020032FFA0A0FA24C83,WIFI,0,edu.teco.moamoa,REMOVED,,137000,TIME,3.5,4,4.5
1449946800000,TILTING,100,0.0,[1300],[https://dav.nerven.gift/dav/cal/calendars/admin/94c25b9b-a9c4-45c8-a1ab-326f06926e06/],,,,,,6AB717006570253F7FEFAC301423BF462FEAE6C008B9228CD52688C35BCC3EFB,WIFI,0,edu.teco.moamoa,REMOVED,,55000,CALENDAR_EVENT_START,3,3,4
1449950400000,STILL,58,2.0,[1300],[https://dav.nerven.gift/dav/cal/calendars/admin/94c25b9b-a9c4-45c8-a1ab-326f06926e06/],,,,,,8F2A51BE397C583699590B71E4A88F08950B0A1B2E2F493D93D241BACAAEC88F,WIFI,0,edu.teco.moamoa,REMOVED,,107000,TIME,2.5,2,2.5
1449954000000,STILL,100,0.0,,,,,,,,F42AF75D97FE84911977291DE43157D9AD92AE338C186FB22ED5DC4931415904,WIFI,0,edu.teco.moamoa,REMOVED,,181000,TIME,2,1.5,3.5
1449957646000,TILTING,100,510.0,,,,,,,,34E82B0404CECFDC0B26B6D9F0830111C87D8BF63C36C4FBA9A073E7F10A2E92,NONE,1,edu.teco.moamoa,REMOVED,,28000,CONNECTIVITY_LOST,2,1,2
1449960422000,TILTING,100,50.0,,,,,,,,CCBC981F84495E421B0581DA0A60E04D850E8C72F8FE0E0CDDAFE626144EBF90,NONE,0,edu.teco.moamoa,REMOVED,,42000,CONNECTIVITY_NEW,2,2,2
1449960465000,TILTING,100,72.0,,,,,,,,2100C312F11F1885F20BB79FD784CEC35F6B9E3F623DF44B5AA2C180108A70B0,WIFI,1,,,,,INDEPENDENT,3,3,3
1450173900000,STILL,100,633.0,,,,,,,,99351362AF6A5DC761AA8D6ECEA8C8EBEED0AAAFB8C175A2BA1BA02070F713FC,WIFI,0,edu.teco.moamoa,REMOVED,,67000,TIME,2.5,3,4
1450177001000,IN_VEHICLE,40,70.0,,,,,,,,8870B85EC8CFAD97DF2B7115A36DC8E001656E3244AE1FFDD2CACEEF8B9D8CBC,MOBILE,1,edu.teco.moamoa,REMOVED,,1000,CONNECTIVITY_LOST,2,3,4
1450180758000,TILTING,100,13.0,,,,,,,,B6A8891D2C7996FE0DC645F30395EEB1E89E077C1A5FD9066431ABD602482300,NONE,1,edu.teco.moamoa,REMOVED,,48000,CONNECTIVITY_LOST,3,3,2
1450185000000,TILTING,100,0.0,,,,,,,,99351362AF6A5DC761AA8D6ECEA8C8EBEED0AAAFB8C175A2BA1BA02070F713FC,WIFI,0,edu.teco.moamoa,REMOVED,,37000,TIME,3,4,3
1450188000000,TILTING,100,0.0,,,,,,,,7FC3FAD42920AC8F7610BA74DA6DD9350398EB8970A11DAB54928DE3D90591C9,WIFI,0,edu.teco.moamoa,REMOVED,,37000,TIME,2,2,2
1450191600000,STILL,85,0.0,,,,,,,,8870B85EC8CFAD97DF2B7115A36DC8E001656E3244AE1FFDD2CACEEF8B9D8CBC,WIFI,0,edu.teco.moamoa,REMOVED,,13000,TIME,3,4,4
1450195199000,TILTING,100,0.0,,,,,,,,B6A8891D2C7996FE0DC645F30395EEB1E89E077C1A5FD9066431ABD602482300,WIFI,0,,,,43000,TIME,3,4,4
1450198804000,STILL,100,35.0,,,,,,,,,WIFI,0,,,,123000,TIME,3.5,4,4
1450202400000,TILTING,100,35.0,,,,,,,,1320A970AC8424FFAB89C9C8AA2F5D17FEBA8E00D0F7D6B7F74409FCBA24A17A,WIFI,1,,,,17000,TIME,2.5,3,4
1450206000000,TILTING,100,0.0,,,,,,,,A500253EBDDA05B6250753AC2546DDA39057C9F37411A817B5ABCB27804CF340,WIFI,0,,,,38000,TIME,3,3,3
1450209600000,STILL,69,0.0,,,,,,,,3EE6B92AE339A8CA48F7206AB02970326F7C0A53CB1191CC22300FF51661B747,WIFI,0,edu.teco.moamoa,REMOVED,,49000,TIME,2.5,3,4
1450213200000,STILL,100,0.0,,,,,,,,DAB892F95414F8C43603E2B6822BA2AEFA323378060DCDE5A0678E868098497F,WIFI,0,,,,264000,TIME,3.5,4,4
1450268121000,STILL,81,0.0,[1226],[Geburtstage],,,,,,8870B85EC8CFAD97DF2B7115A36DC8E001656E3244AE1FFDD2CACEEF8B9D8CBC,MOBILE,0,edu.teco.moamoa,REMOVED,,191000,CALENDAR_EVENT_START,2,2.5,3
1450270800000,TILTING,100,24.0,[1226],[Geburtstage],,,,,,8870B85EC8CFAD97DF2B7115A36DC8E001656E3244AE1FFDD2CACEEF8B9D8CBC,WIFI,1,edu.teco.moamoa,REMOVED,,31000,TIME,2,2,2
1450275300000,STILL,100,0.0,[1226],[Geburtstage],,,,,,8870B85EC8CFAD97DF2B7115A36DC8E001656E3244AE1FFDD2CACEEF8B9D8CBC,WIFI,0,edu.teco.moamoa,REMOVED,,22000,TIME,2,2,3
1450277366000,ON_FOOT,57,0.0,[1226],[Geburtstage],,,,,,FDF858EE55234EA23DD69607E500F0123DF54669A838FD91872E7133947DBACF,MOBILE,0,edu.teco.moamoa,REMOVED,,10000,CALENDAR_EVENT_END,2,2,2
1450281900000,TILTING,100,68.0,[1226],[Geburtstage],,,,,,C53F1E268F56DE86D50A8C53814BF49A85FEE42A26E09B497B537DABBDF93A68,WIFI,0,edu.teco.moamoa,REMOVED,,18000,TIME,2.5,2,2
1450286101000,STILL,80,0.0,"[1299, 1226]","[https://dav.nerven.gift/dav/cal/calendars/admin/94c25b9b-a9c4-45c8-a1ab-326f06926e06/, Geburtstage]",,,,,,8D1924AC2D13D70BC0E5C525D3397BD56CC05A419CF67D7B6C329BB4D4A2698F,MOBILE,0,edu.teco.moamoa,REMOVED,,7000,TIME,3,4,2
1450290601000,STILL,62,0.0,"[1299, 1226]","[https://dav.nerven.gift/dav/cal/calendars/admin/94c25b9b-a9c4-45c8-a1ab-326f06926e06/, Geburtstage]",,,,,,8D1924AC2D13D70BC0E5C525D3397BD56CC05A419CF67D7B6C329BB4D4A2698F,MOBILE,0,edu.teco.moamoa,REMOVED,,43000,TIME,2.5,4,3
1450292401000,STILL,85,0.0,"[1299, 1226]","[https://dav.nerven.gift/dav/cal/calendars/admin/94c25b9b-a9c4-45c8-a1ab-326f06926e06/, Geburtstage]",,,,,,9B767785465178C09E933E2A08032E160523373576F7045C0681350ABAD16EEA,MOBILE,0,edu.teco.moamoa,REMOVED,,12000,TIME,4,4,3
1450298645000,,,0.0,"[1299, 1226]","[https://dav.nerven.gift/dav/cal/calendars/admin/94c25b9b-a9c4-45c8-a1ab-326f06926e06/, Geburtstage]",,,,,,9B767785465178C09E933E2A08032E160523373576F7045C0681350ABAD16EEA,MOBILE,1,edu.teco.moamoa,REMOVED,,31000,CALENDAR_EVENT_START,4,4.5,3.5
1450300200000,ON_FOOT,92,2.0,[1226],[Geburtstage],,,,,,A6FD6799D2617680ECD2F3C524BEDFC0A5A724836638DFCEB76D107FE8CF9509,MOBILE,0,edu.teco.moamoa,REMOVED,,43000,TIME,4,3,2
1450303499000,STILL,90,0.0,[1226],[Geburtstage],,,,,,D8CFDBE9CEFCC55AB5E63383BED2C4B0312E2558090D81230855900DD8AEF88C,WIFI,0,edu.teco.moamoa,REMOVED,,83000,TIME,2,2.5,3.5
1450308085000,TILTING,100,19.0,[1226],[Geburtstage],,,,,,E9C3B70486D421819295359D87FEBBBEB9C6DF4925BDEF91CFA77B7F0793FF47,WIFI,1,,,,,INDEPENDENT,2,1.5,2
1450346400000,TILTING,100,0.0,,,,,,,,8C0971676C9DAEEE4E88839E5D7AE441A7F5F94352E97BD1B9CCEEF50E9177D5,WIFI,0,edu.teco.moamoa,REMOVED,,33000,TIME,2.5,2,3
1450350000000,STILL,100,0.0,,,,,,,,D8CFDBE9CEFCC55AB5E63383BED2C4B0312E2558090D81230855900DD8AEF88C,WIFI,0,edu.teco.moamoa,REMOVED,,33000,TIME,2,3,3.5
1450353600000,UNKNOWN,42,244.0,,,,,,,,31048A050DD38973C600FDD721BD5173E9B054CCAB68663C2E431ADC67145923,MOBILE,1,edu.teco.moamoa,REMOVED,,43000,TIME,2.5,2.5,2.5
1450357500000,STILL,60,0.0,,,,,,,,C53F1E268F56DE86D50A8C53814BF49A85FEE42A26E09B497B537DABBDF93A68,WIFI,0,edu.teco.moamoa,REMOVED,,43000,TIME,3,2.5,3.5
1450360800000,STILL,69,6.0,,,,,,,,C53F1E268F56DE86D50A8C53814BF49A85FEE42A26E09B497B537DABBDF93A68,WIFI,1,,,,23000,TIME,2,3,3.5
1450362889000,TILTING,100,15.0,,,,,,,,4C51218E66A3591A2539FFC52D6011D0E6B0ED9C82DFE2ABF3095E7C24999654,MOBILE,1,edu.teco.moamoa,REMOVED,,134000,CONNECTIVITY_LOST,2.5,2.5,3
1450364400000,STILL,77,0.0,,,,,,,,99351362AF6A5DC761AA8D6ECEA8C8EBEED0AAAFB8C175A2BA1BA02070F713FC,WIFI,0,com.fsck.k9,REMOVED,,246000,TIME,3,3.5,4
1450368300000,TILTING,100,0.0,,,,,,,,4C51218E66A3591A2539FFC52D6011D0E6B0ED9C82DFE2ABF3095E7C24999654,MOBILE,0,,,,31000,TIME,2.5,2,2
1450370529000,TILTING,100,0.0,,,,,,,,292032BC85766FF3EB27A15F7D7816C9F984B1D21B62E617D1BB784D94914410,NONE,0,edu.teco.moamoa,REMOVED,,44000,CONNECTIVITY_NEW,2.5,2.5,2
1450371599000,STILL,100,10.0,,,,,,,,D5D273F63C157AA21BE737D0A8814ACAC139FB2A337E66416539E73383CEE338,WIFI,0,edu.teco.moamoa,REMOVED,,23000,TIME,3,2,2
1450375199000,TILTING,100,6.0,,,,,,,,D5D273F63C157AA21BE737D0A8814ACAC139FB2A337E66416539E73383CEE338,WIFI,1,,,,34000,TIME,1.5,4,4
1450379673000,,,32.0,,,,,,,,68CB481C0C90848AD7616908367688FF04C1DC324544F7963F3C6446BE854A52,WIFI,1,,,,,INDEPENDENT,2,3,2
1450394732000,UNKNOWN,50,52.0,,,,,,,,21BA9C15219503225B9A29D7BCF02E5DB7F879B53359B7811D5C4C264D66B72E,WIFI,1,,,,,INDEPENDENT,3.5,3,3.5
